{
  "id": "Timeseries",
  "title": "FMI ECMWF",
  "scope": "system",
  "keywords": "Timeseries",
  "initialProps": {
    "plotPreset": {
      "mapId": "TimeseriesMap",
      "plots": [
        {
          "title": "Plot 1",
          "plotId": "Plot_1"
        },
        {
          "title": "Plot 2",
          "plotId": "Plot_2"
        },
        {
          "title": "Plot 3",
          "plotId": "Plot_3"
        }
      ],
      "services": [
        {
          "id": "fmi_ecmwf",
          "interface": "EDR",
          "serviceUrl": "https://opendata.fmi.fi/edr/collections/ecmwf"
        }
      ],
      "parameters": [
        {
          "plotId": "Plot_1",
          "plotType": "line",
          "serviceId": "fmi_ecmwf",
          "propertyName": "Pressure"
        },
        {
          "plotId": "Plot_1",
          "plotType": "line",
          "serviceId": "fmi_ecmwf",
          "propertyName": "Temperature"
        },
        {
          "plotId": "Plot_2",
          "plotType": "bar",
          "serviceId": "fmi_ecmwf",
          "propertyName": "Precipitation1h"
        },
        {
          "plotId": "Plot_3",
          "plotType": "line",
          "serviceId": "fmi_ecmwf",
          "propertyName": "Humidity"
        }
      ]
    }
  },
  "componentType": "TimeSeries"
}
