{
  "id": "taf",
  "title": "Taf Example",
  "scope": "system",
  "viewType": "singleWindow",
  "views": [{ "mosaicNodeId": "viewA", "viewPresetId": "screenConfigTaf" }],
  "syncGroups": [],
  "mosaicNode": "viewA"
}
