{
  "id": "defaultTimeseriesPreset",
  "title": "Timeseries",
  "scope": "system",
  "viewType": "singleWindow",
  "views": [
    {
      "mosaicNodeId": "viewA",
      "viewPresetId": "Timeseries"
    }
  ],
  "mosaicNode": "viewA"
}
