{
  "name": "timeslider",
  "$schema": "../../node_modules/nx/schemas/project-schema.json",
  "sourceRoot": "libs/timeslider/src",
  "projectType": "library",
  "tags": ["scope:timeslider"],
  "targets": {
    "snapshot": {
      "executor": "nx:run-commands",
      "options": {
        "env": {
          "SNAPSHOT_OUTPUT": "libs/timeslider/src/lib/__image_snapshots__"
        },
        "commands": [
          "npx test-storybook -c libs/timeslider/.storybook --url=http://localhost:6007/timeslider"
        ]
      },
      "configurations": {
        "ci": {
          "commands": [
            "nx run timeslider:static-storybook &",
            "npx wait-on tcp:6007 && npx test-storybook -c libs/timeslider/.storybook --url=http://localhost:6007"
          ],
          "parallel": false
        }
      },
      "dependsOn": ["build-storybook"]
    },
    "lint": {
      "executor": "@nx/eslint:lint",
      "outputs": ["{options.outputFile}"],
      "options": {
        "lintFilePatterns": [
          "libs/timeslider/**/*.{ts,tsx,js,jsx}",
          "libs/timeslider/package.json"
        ]
      }
    },
    "build": {
      "executor": "@nx/rollup:rollup",
      "outputs": ["{options.outputPath}"],
      "options": {
        "outputPath": "dist/libs/timeslider",
        "tsConfig": "libs/timeslider/tsconfig.lib.json",
        "project": "libs/timeslider/package.json",
        "entryFile": "libs/timeslider/src/index.ts",
        "external": "all",
        "rollupConfig": "@nx/react/plugins/bundle-rollup",
        "compiler": "babel",
        "assets": [
          {
            "glob": "libs/timeslider/README.md",
            "input": ".",
            "output": "."
          }
        ]
      }
    },
    "test": {
      "executor": "@nx/jest:jest",
      "outputs": ["{workspaceRoot}/coverage/{projectRoot}"],
      "options": {
        "jestConfig": "libs/timeslider/jest.config.js",
        "codeCoverage": true
      }
    },
    "typecheck": {
      "executor": "nx:run-commands",
      "options": {
        "command": "tsc -p libs/timeslider/tsconfig.lib.json"
      }
    },
    "storybook": {
      "executor": "@nx/storybook:storybook",
      "options": {
        "port": 4402,
        "configDir": "libs/timeslider/.storybook"
      },
      "configurations": {
        "ci": {
          "quiet": true
        }
      }
    },
    "build-storybook": {
      "executor": "@nx/storybook:build",
      "outputs": ["{options.outputDir}"],
      "options": {
        "outputDir": "dist/storybook/timeslider",
        "configDir": "libs/timeslider/.storybook"
      },
      "configurations": {
        "ci": {
          "quiet": true
        }
      }
    },
    "static-storybook": {
      "executor": "@nx/web:file-server",
      "options": {
        "port": 6007,
        "buildTarget": "timeslider:build-storybook",
        "staticFilePath": "dist/storybook/timeslider"
      },
      "configurations": {
        "ci": {
          "buildTarget": "timeslider:build-storybook:ci"
        }
      }
    },
    "docs": {
      "executor": "nx:run-commands",
      "options": {
        "command": "npx typedoc --out docs/timeslider libs/timeslider/src/index.ts --tsconfig libs/timeslider/tsconfig.lib.json"
      }
    }
  }
}
