{
  "generators": {
    "@nx/react": {
      "application": {
        "style": "css",
        "linter": "eslint",
        "babel": true
      },
      "component": {
        "style": "css"
      },
      "library": {
        "style": "css",
        "linter": "eslint",
        "unitTestRunner": "jest"
      }
    }
  },
  "defaultProject": "geoweb",
  "$schema": "./node_modules/nx/schemas/nx-schema.json",
  "targetDefaults": {
    "snapshot": {
      "cache": true,
      "inputs": ["default", "^production"]
    },
    "typecheck": {
      "cache": true
    },
    "docs": {
      "cache": true,
      "outputs": ["{workspaceRoot}/docs/{projectName}"],
      "inputs": ["production", "^production"]
    },
    "build": {
      "dependsOn": ["^build"],
      "inputs": ["production", "^production"],
      "cache": true
    },
    "build-storybook": {
      "inputs": [
        "default",
        "^production",
        "{projectRoot}/.storybook/**/*",
        "{projectRoot}/tsconfig.storybook.json"
      ],
      "cache": true
    },
    "lint": {
      "cache": true
    },
    "e2e": {
      "cache": true
    },
    "@nx/jest:jest": {
      "cache": true,
      "inputs": ["default", "^production", "{workspaceRoot}/jest.preset.js"],
      "options": {
        "passWithNoTests": true
      },
      "configurations": {
        "ci": {
          "ci": true,
          "codeCoverage": true
        }
      }
    }
  },
  "namedInputs": {
    "env": [
      {
        "runtime": "node -e \"console.log(Object.entries(process.env).filter(([key]) => key.startsWith('NX_PUBLIC_GEOWEB_')).map(([, value]) => value).join(','))\""
      }
    ],
    "default": ["{projectRoot}/**/*", "sharedGlobals"],
    "sharedGlobals": [
      "{workspaceRoot}/workspace.json",
      "{workspaceRoot}/tsconfig.base.json",
      "{workspaceRoot}/tslint.json",
      "{workspaceRoot}/nx.json"
    ],
    "production": [
      "default",
      "!{projectRoot}/**/*.stories.@(js|jsx|ts|tsx|mdx)",
      "!{projectRoot}/.storybook/**/*",
      "!{projectRoot}/src/test-setup.[jt]s",
      "!{projectRoot}/tsconfig.storybook.json"
    ]
  },
  "tasksRunnerOptions": {
    "s3-cache-runner": {
      "runner": "./tools/s3-cache-runner/s3-cache-runner.js",
      "options": {
        "keyPrefix": "nx-cache"
      }
    },
    "default": {
      "options": {
        "cacheableOperations": ["build-storybook"]
      }
    }
  },
  "useInferencePlugins": false,
  "defaultBase": "master",
  "useLegacyCache": true
}
