{
  "type": "FeatureCollection",
  "features": [
    {
      "geometry": { "coordinates": [5.2, 52.0], "type": "Point" },
      "type": "Feature",
      "properties": {
        "featureType": "MeasureTimeseriesObservation",
        "result": [
          0,
          0,
          0,
          0,
          0,
          0,
          0,
          0,
          0.1,
          0,
          0,
          0,
          0,
          0,
          0,
          0,
          0,
          0,
          0,
          0,
          0.5,
          0.7,
          0,
          0.2,
          2.3,
          0.2,
          0,
          0.5,
          1.4,
          0,
          0,
          0.6,
          1,
          0.1,
          0,
          0.6,
          0.4,
          0,
          0,
          0.4,
          0.2,
          0,
          0,
          0.3,
          0.2,
          0,
          0,
          0.3,
          0.5,
          0,
          0.1,
          0.6,
          0.9,
          0,
          0.1,
          0.7,
          0.5,
          0,
          0,
          0.3
        ],
        "timeStep": [
          "2021-07-19T18:00:00Z",
          "2021-07-20T00:00:00Z",
          "2021-07-20T06:00:00Z",
          "2021-07-20T12:00:00Z",
          "2021-07-20T18:00:00Z",
          "2021-07-21T00:00:00Z",
          "2021-07-21T06:00:00Z",
          "2021-07-21T12:00:00Z",
          "2021-07-21T18:00:00Z",
          "2021-07-22T00:00:00Z",
          "2021-07-22T06:00:00Z",
          "2021-07-22T12:00:00Z",
          "2021-07-22T18:00:00Z",
          "2021-07-23T00:00:00Z",
          "2021-07-23T06:00:00Z",
          "2021-07-23T12:00:00Z",
          "2021-07-23T18:00:00Z",
          "2021-07-24T00:00:00Z",
          "2021-07-24T06:00:00Z",
          "2021-07-24T12:00:00Z",
          "2021-07-24T18:00:00Z",
          "2021-07-25T00:00:00Z",
          "2021-07-25T06:00:00Z",
          "2021-07-25T12:00:00Z",
          "2021-07-25T18:00:00Z",
          "2021-07-26T00:00:00Z",
          "2021-07-26T06:00:00Z",
          "2021-07-26T12:00:00Z",
          "2021-07-26T18:00:00Z",
          "2021-07-27T00:00:00Z",
          "2021-07-27T06:00:00Z",
          "2021-07-27T12:00:00Z",
          "2021-07-27T18:00:00Z",
          "2021-07-28T00:00:00Z",
          "2021-07-28T06:00:00Z",
          "2021-07-28T12:00:00Z",
          "2021-07-28T18:00:00Z",
          "2021-07-29T00:00:00Z",
          "2021-07-29T06:00:00Z",
          "2021-07-29T12:00:00Z",
          "2021-07-29T18:00:00Z",
          "2021-07-30T00:00:00Z",
          "2021-07-30T06:00:00Z",
          "2021-07-30T12:00:00Z",
          "2021-07-30T18:00:00Z",
          "2021-07-31T00:00:00Z",
          "2021-07-31T06:00:00Z",
          "2021-07-31T12:00:00Z",
          "2021-07-31T18:00:00Z",
          "2021-08-01T00:00:00Z",
          "2021-08-01T06:00:00Z",
          "2021-08-01T12:00:00Z",
          "2021-08-01T18:00:00Z",
          "2021-08-02T00:00:00Z",
          "2021-08-02T06:00:00Z",
          "2021-08-02T12:00:00Z",
          "2021-08-02T18:00:00Z",
          "2021-08-03T00:00:00Z",
          "2021-08-03T06:00:00Z",
          "2021-08-03T12:00:00Z"
        ],
        "phenomenonTimeStart": "2021-07-19T18:00:00Z",
        "phenomenonTimeEnd": "2021-08-03T12:00:00Z",
        "resultTime": "2021-07-19T12:00:00Z",
        "observedPropertyTitle": "Precipitation",
        "observedPropertyModifier": "Verwachte 6 uur som",
        "unitOfMeasureTitle": "Celsius"
      }
    },
    {
      "geometry": { "coordinates": [5.2, 52.0], "type": "Point" },
      "type": "Feature",
      "properties": {
        "featureType": "MeasureTimeseriesObservation",
        "result": [
          0,
          0,
          0,
          0,
          0,
          0,
          0,
          0,
          0,
          0,
          0,
          0,
          0,
          0,
          0,
          0,
          0,
          0,
          0,
          0,
          0,
          0.1,
          0,
          0.1,
          0.9,
          0.1,
          0,
          0.2,
          0.4,
          0,
          0,
          0.3,
          0.3,
          0,
          0,
          0.2,
          0,
          0,
          0,
          0.1,
          0,
          0,
          0,
          0,
          0,
          0,
          0,
          0.1,
          0.1,
          0,
          0,
          0.2,
          0.1,
          0,
          0,
          0.2,
          0.1,
          0,
          0,
          0.1
        ],
        "timeStep": [
          "2021-07-19T18:00:00Z",
          "2021-07-20T00:00:00Z",
          "2021-07-20T06:00:00Z",
          "2021-07-20T12:00:00Z",
          "2021-07-20T18:00:00Z",
          "2021-07-21T00:00:00Z",
          "2021-07-21T06:00:00Z",
          "2021-07-21T12:00:00Z",
          "2021-07-21T18:00:00Z",
          "2021-07-22T00:00:00Z",
          "2021-07-22T06:00:00Z",
          "2021-07-22T12:00:00Z",
          "2021-07-22T18:00:00Z",
          "2021-07-23T00:00:00Z",
          "2021-07-23T06:00:00Z",
          "2021-07-23T12:00:00Z",
          "2021-07-23T18:00:00Z",
          "2021-07-24T00:00:00Z",
          "2021-07-24T06:00:00Z",
          "2021-07-24T12:00:00Z",
          "2021-07-24T18:00:00Z",
          "2021-07-25T00:00:00Z",
          "2021-07-25T06:00:00Z",
          "2021-07-25T12:00:00Z",
          "2021-07-25T18:00:00Z",
          "2021-07-26T00:00:00Z",
          "2021-07-26T06:00:00Z",
          "2021-07-26T12:00:00Z",
          "2021-07-26T18:00:00Z",
          "2021-07-27T00:00:00Z",
          "2021-07-27T06:00:00Z",
          "2021-07-27T12:00:00Z",
          "2021-07-27T18:00:00Z",
          "2021-07-28T00:00:00Z",
          "2021-07-28T06:00:00Z",
          "2021-07-28T12:00:00Z",
          "2021-07-28T18:00:00Z",
          "2021-07-29T00:00:00Z",
          "2021-07-29T06:00:00Z",
          "2021-07-29T12:00:00Z",
          "2021-07-29T18:00:00Z",
          "2021-07-30T00:00:00Z",
          "2021-07-30T06:00:00Z",
          "2021-07-30T12:00:00Z",
          "2021-07-30T18:00:00Z",
          "2021-07-31T00:00:00Z",
          "2021-07-31T06:00:00Z",
          "2021-07-31T12:00:00Z",
          "2021-07-31T18:00:00Z",
          "2021-08-01T00:00:00Z",
          "2021-08-01T06:00:00Z",
          "2021-08-01T12:00:00Z",
          "2021-08-01T18:00:00Z",
          "2021-08-02T00:00:00Z",
          "2021-08-02T06:00:00Z",
          "2021-08-02T12:00:00Z",
          "2021-08-02T18:00:00Z",
          "2021-08-03T00:00:00Z",
          "2021-08-03T06:00:00Z",
          "2021-08-03T12:00:00Z"
        ],
        "phenomenonTimeStart": "2021-07-19T18:00:00Z",
        "phenomenonTimeEnd": "2021-08-03T12:00:00Z",
        "resultTime": "2021-07-19T12:00:00Z",
        "observedPropertyTitle": "Precipitation",
        "observedPropertyModifier": "percentile",
        "unitOfMeasureTitle": "Celsius",
        "observedPropertyModifierValue": "25"
      }
    },
    {
      "geometry": { "coordinates": [5.2, 52.0], "type": "Point" },
      "type": "Feature",
      "properties": {
        "featureType": "MeasureTimeseriesObservation",
        "result": [
          0.1,
          0,
          0,
          0,
          0,
          0,
          0,
          0.1,
          0.3,
          0,
          0,
          0.1,
          0,
          0,
          0,
          0,
          0,
          0,
          0,
          0.1,
          2,
          2.4,
          0.2,
          0.6,
          4.6,
          0.5,
          0.1,
          1,
          4.2,
          0.3,
          0.1,
          1.2,
          3.1,
          0.4,
          0.8,
          1.3,
          2,
          0,
          0.5,
          1.1,
          1.1,
          0.1,
          0.1,
          0.7,
          1.8,
          0.1,
          0.2,
          0.9,
          1.6,
          0.7,
          0.6,
          1.6,
          3.3,
          0.4,
          0.5,
          1.7,
          1.7,
          0.4,
          0.4,
          1.3
        ],
        "timeStep": [
          "2021-07-19T18:00:00Z",
          "2021-07-20T00:00:00Z",
          "2021-07-20T06:00:00Z",
          "2021-07-20T12:00:00Z",
          "2021-07-20T18:00:00Z",
          "2021-07-21T00:00:00Z",
          "2021-07-21T06:00:00Z",
          "2021-07-21T12:00:00Z",
          "2021-07-21T18:00:00Z",
          "2021-07-22T00:00:00Z",
          "2021-07-22T06:00:00Z",
          "2021-07-22T12:00:00Z",
          "2021-07-22T18:00:00Z",
          "2021-07-23T00:00:00Z",
          "2021-07-23T06:00:00Z",
          "2021-07-23T12:00:00Z",
          "2021-07-23T18:00:00Z",
          "2021-07-24T00:00:00Z",
          "2021-07-24T06:00:00Z",
          "2021-07-24T12:00:00Z",
          "2021-07-24T18:00:00Z",
          "2021-07-25T00:00:00Z",
          "2021-07-25T06:00:00Z",
          "2021-07-25T12:00:00Z",
          "2021-07-25T18:00:00Z",
          "2021-07-26T00:00:00Z",
          "2021-07-26T06:00:00Z",
          "2021-07-26T12:00:00Z",
          "2021-07-26T18:00:00Z",
          "2021-07-27T00:00:00Z",
          "2021-07-27T06:00:00Z",
          "2021-07-27T12:00:00Z",
          "2021-07-27T18:00:00Z",
          "2021-07-28T00:00:00Z",
          "2021-07-28T06:00:00Z",
          "2021-07-28T12:00:00Z",
          "2021-07-28T18:00:00Z",
          "2021-07-29T00:00:00Z",
          "2021-07-29T06:00:00Z",
          "2021-07-29T12:00:00Z",
          "2021-07-29T18:00:00Z",
          "2021-07-30T00:00:00Z",
          "2021-07-30T06:00:00Z",
          "2021-07-30T12:00:00Z",
          "2021-07-30T18:00:00Z",
          "2021-07-31T00:00:00Z",
          "2021-07-31T06:00:00Z",
          "2021-07-31T12:00:00Z",
          "2021-07-31T18:00:00Z",
          "2021-08-01T00:00:00Z",
          "2021-08-01T06:00:00Z",
          "2021-08-01T12:00:00Z",
          "2021-08-01T18:00:00Z",
          "2021-08-02T00:00:00Z",
          "2021-08-02T06:00:00Z",
          "2021-08-02T12:00:00Z",
          "2021-08-02T18:00:00Z",
          "2021-08-03T00:00:00Z",
          "2021-08-03T06:00:00Z",
          "2021-08-03T12:00:00Z"
        ],
        "phenomenonTimeStart": "2021-07-19T18:00:00Z",
        "phenomenonTimeEnd": "2021-08-03T12:00:00Z",
        "resultTime": "2021-07-19T12:00:00Z",
        "observedPropertyTitle": "Precipitation",
        "observedPropertyModifier": "percentile",
        "unitOfMeasureTitle": "Celsius",
        "observedPropertyModifierValue": "75"
      }
    },
    {
      "geometry": { "coordinates": [5.2, 52.0], "type": "Point" },
      "type": "Feature",
      "properties": {
        "featureType": "MeasureTimeseriesObservation",
        "result": [
          0,
          0,
          0,
          0,
          0,
          0,
          0,
          0,
          0,
          0,
          0,
          0,
          0,
          0,
          0,
          0,
          0,
          0,
          0,
          0,
          0,
          0,
          0,
          0,
          0.1,
          0,
          0,
          0.1,
          0,
          0,
          0,
          0,
          0.1,
          0,
          0,
          0,
          0,
          0,
          0,
          0,
          0,
          0,
          0,
          0,
          0,
          0,
          0,
          0,
          0,
          0,
          0,
          0,
          0,
          0,
          0,
          0,
          0,
          0,
          0,
          0
        ],
        "timeStep": [
          "2021-07-19T18:00:00Z",
          "2021-07-20T00:00:00Z",
          "2021-07-20T06:00:00Z",
          "2021-07-20T12:00:00Z",
          "2021-07-20T18:00:00Z",
          "2021-07-21T00:00:00Z",
          "2021-07-21T06:00:00Z",
          "2021-07-21T12:00:00Z",
          "2021-07-21T18:00:00Z",
          "2021-07-22T00:00:00Z",
          "2021-07-22T06:00:00Z",
          "2021-07-22T12:00:00Z",
          "2021-07-22T18:00:00Z",
          "2021-07-23T00:00:00Z",
          "2021-07-23T06:00:00Z",
          "2021-07-23T12:00:00Z",
          "2021-07-23T18:00:00Z",
          "2021-07-24T00:00:00Z",
          "2021-07-24T06:00:00Z",
          "2021-07-24T12:00:00Z",
          "2021-07-24T18:00:00Z",
          "2021-07-25T00:00:00Z",
          "2021-07-25T06:00:00Z",
          "2021-07-25T12:00:00Z",
          "2021-07-25T18:00:00Z",
          "2021-07-26T00:00:00Z",
          "2021-07-26T06:00:00Z",
          "2021-07-26T12:00:00Z",
          "2021-07-26T18:00:00Z",
          "2021-07-27T00:00:00Z",
          "2021-07-27T06:00:00Z",
          "2021-07-27T12:00:00Z",
          "2021-07-27T18:00:00Z",
          "2021-07-28T00:00:00Z",
          "2021-07-28T06:00:00Z",
          "2021-07-28T12:00:00Z",
          "2021-07-28T18:00:00Z",
          "2021-07-29T00:00:00Z",
          "2021-07-29T06:00:00Z",
          "2021-07-29T12:00:00Z",
          "2021-07-29T18:00:00Z",
          "2021-07-30T00:00:00Z",
          "2021-07-30T06:00:00Z",
          "2021-07-30T12:00:00Z",
          "2021-07-30T18:00:00Z",
          "2021-07-31T00:00:00Z",
          "2021-07-31T06:00:00Z",
          "2021-07-31T12:00:00Z",
          "2021-07-31T18:00:00Z",
          "2021-08-01T00:00:00Z",
          "2021-08-01T06:00:00Z",
          "2021-08-01T12:00:00Z",
          "2021-08-01T18:00:00Z",
          "2021-08-02T00:00:00Z",
          "2021-08-02T06:00:00Z",
          "2021-08-02T12:00:00Z",
          "2021-08-02T18:00:00Z",
          "2021-08-03T00:00:00Z",
          "2021-08-03T06:00:00Z",
          "2021-08-03T12:00:00Z"
        ],
        "phenomenonTimeStart": "2021-07-19T18:00:00Z",
        "phenomenonTimeEnd": "2021-08-03T12:00:00Z",
        "resultTime": "2021-07-19T12:00:00Z",
        "observedPropertyTitle": "Precipitation",
        "observedPropertyModifier": "percentile",
        "unitOfMeasureTitle": "Celsius",
        "observedPropertyModifierValue": "10"
      }
    },
    {
      "geometry": { "coordinates": [5.2, 52.0], "type": "Point" },
      "type": "Feature",
      "properties": {
        "featureType": "MeasureTimeseriesObservation",
        "result": [
          0.1,
          0,
          0,
          0.1,
          0,
          0,
          0,
          0.1,
          0.7,
          0.1,
          0.1,
          0.4,
          0,
          0,
          0.1,
          0.3,
          0.1,
          0,
          0.1,
          0.7,
          7.7,
          6.5,
          4.5,
          2.6,
          8.2,
          1.7,
          0.4,
          2.3,
          7.4,
          1.8,
          2.3,
          5,
          5.1,
          3,
          4.2,
          3.6,
          6.7,
          1.3,
          2.9,
          4.3,
          3,
          2,
          2.3,
          2.9,
          6,
          1.4,
          2.2,
          3.6,
          5.6,
          3.2,
          8,
          4.6,
          7,
          2.4,
          3.7,
          6.2,
          5.2,
          1.3,
          3.4,
          3.1
        ],
        "timeStep": [
          "2021-07-19T18:00:00Z",
          "2021-07-20T00:00:00Z",
          "2021-07-20T06:00:00Z",
          "2021-07-20T12:00:00Z",
          "2021-07-20T18:00:00Z",
          "2021-07-21T00:00:00Z",
          "2021-07-21T06:00:00Z",
          "2021-07-21T12:00:00Z",
          "2021-07-21T18:00:00Z",
          "2021-07-22T00:00:00Z",
          "2021-07-22T06:00:00Z",
          "2021-07-22T12:00:00Z",
          "2021-07-22T18:00:00Z",
          "2021-07-23T00:00:00Z",
          "2021-07-23T06:00:00Z",
          "2021-07-23T12:00:00Z",
          "2021-07-23T18:00:00Z",
          "2021-07-24T00:00:00Z",
          "2021-07-24T06:00:00Z",
          "2021-07-24T12:00:00Z",
          "2021-07-24T18:00:00Z",
          "2021-07-25T00:00:00Z",
          "2021-07-25T06:00:00Z",
          "2021-07-25T12:00:00Z",
          "2021-07-25T18:00:00Z",
          "2021-07-26T00:00:00Z",
          "2021-07-26T06:00:00Z",
          "2021-07-26T12:00:00Z",
          "2021-07-26T18:00:00Z",
          "2021-07-27T00:00:00Z",
          "2021-07-27T06:00:00Z",
          "2021-07-27T12:00:00Z",
          "2021-07-27T18:00:00Z",
          "2021-07-28T00:00:00Z",
          "2021-07-28T06:00:00Z",
          "2021-07-28T12:00:00Z",
          "2021-07-28T18:00:00Z",
          "2021-07-29T00:00:00Z",
          "2021-07-29T06:00:00Z",
          "2021-07-29T12:00:00Z",
          "2021-07-29T18:00:00Z",
          "2021-07-30T00:00:00Z",
          "2021-07-30T06:00:00Z",
          "2021-07-30T12:00:00Z",
          "2021-07-30T18:00:00Z",
          "2021-07-31T00:00:00Z",
          "2021-07-31T06:00:00Z",
          "2021-07-31T12:00:00Z",
          "2021-07-31T18:00:00Z",
          "2021-08-01T00:00:00Z",
          "2021-08-01T06:00:00Z",
          "2021-08-01T12:00:00Z",
          "2021-08-01T18:00:00Z",
          "2021-08-02T00:00:00Z",
          "2021-08-02T06:00:00Z",
          "2021-08-02T12:00:00Z",
          "2021-08-02T18:00:00Z",
          "2021-08-03T00:00:00Z",
          "2021-08-03T06:00:00Z",
          "2021-08-03T12:00:00Z"
        ],
        "phenomenonTimeStart": "2021-07-19T18:00:00Z",
        "phenomenonTimeEnd": "2021-08-03T12:00:00Z",
        "resultTime": "2021-07-19T12:00:00Z",
        "observedPropertyTitle": "Precipitation",
        "observedPropertyModifier": "percentile",
        "unitOfMeasureTitle": "Celsius",
        "observedPropertyModifierValue": "90"
      }
    },
    {
      "geometry": { "coordinates": [5.2, 52.0], "type": "Point" },
      "type": "Feature",
      "properties": {
        "featureType": "MeasureTimeseriesObservation",
        "result": [
          19,
          21,
          11.2,
          21.1,
          12.5,
          23,
          14.6,
          20.5,
          11.9,
          21.3,
          14.1,
          25.5,
          16.5,
          24.1,
          16.3,
          22.8,
          15.7,
          22.6,
          15.6,
          21.9,
          15.1,
          21.4,
          14.5,
          20.9,
          14.3,
          20.9,
          14.6,
          20.2,
          14.3,
          19.7
        ],
        "timeStep": [
          "2021-07-19T00:00:00Z",
          "2021-07-19T12:00:00Z",
          "2021-07-20T00:00:00Z",
          "2021-07-20T12:00:00Z",
          "2021-07-21T00:00:00Z",
          "2021-07-21T12:00:00Z",
          "2021-07-22T00:00:00Z",
          "2021-07-22T12:00:00Z",
          "2021-07-23T00:00:00Z",
          "2021-07-23T12:00:00Z",
          "2021-07-24T00:00:00Z",
          "2021-07-24T12:00:00Z",
          "2021-07-25T00:00:00Z",
          "2021-07-25T12:00:00Z",
          "2021-07-26T00:00:00Z",
          "2021-07-26T12:00:00Z",
          "2021-07-27T00:00:00Z",
          "2021-07-27T12:00:00Z",
          "2021-07-28T00:00:00Z",
          "2021-07-28T12:00:00Z",
          "2021-07-29T00:00:00Z",
          "2021-07-29T12:00:00Z",
          "2021-07-30T00:00:00Z",
          "2021-07-30T12:00:00Z",
          "2021-07-31T00:00:00Z",
          "2021-07-31T12:00:00Z",
          "2021-08-01T00:00:00Z",
          "2021-08-01T12:00:00Z",
          "2021-08-02T00:00:00Z",
          "2021-08-02T12:00:00Z"
        ],
        "phenomenonTimeStart": "2021-07-19T00:00:00Z",
        "phenomenonTimeEnd": "2021-08-02T12:00:00Z",
        "resultTime": "2021-07-19T12:00:00Z",
        "observedPropertyTitle": "Temperature",
        "observedPropertyModifier": "fc",
        "unitOfMeasureTitle": "Celsius"
      }
    },
    {
      "geometry": { "coordinates": [5.2, 52.0], "type": "Point" },
      "type": "Feature",
      "properties": {
        "featureType": "MeasureTimeseriesObservation",
        "result": [
          18.8,
          20.8,
          10.7,
          20.8,
          12.1,
          22.6,
          14.1,
          19.6,
          10.7,
          20.5,
          13.6,
          24.5,
          15.8,
          23.3,
          15.7,
          22,
          15.1,
          21.9,
          14.8,
          20.8,
          14,
          20.3,
          13.3,
          19.7,
          13.4,
          19.8,
          13.7,
          19.3,
          12.8,
          18.7
        ],
        "timeStep": [
          "2021-07-19T00:00:00Z",
          "2021-07-19T12:00:00Z",
          "2021-07-20T00:00:00Z",
          "2021-07-20T12:00:00Z",
          "2021-07-21T00:00:00Z",
          "2021-07-21T12:00:00Z",
          "2021-07-22T00:00:00Z",
          "2021-07-22T12:00:00Z",
          "2021-07-23T00:00:00Z",
          "2021-07-23T12:00:00Z",
          "2021-07-24T00:00:00Z",
          "2021-07-24T12:00:00Z",
          "2021-07-25T00:00:00Z",
          "2021-07-25T12:00:00Z",
          "2021-07-26T00:00:00Z",
          "2021-07-26T12:00:00Z",
          "2021-07-27T00:00:00Z",
          "2021-07-27T12:00:00Z",
          "2021-07-28T00:00:00Z",
          "2021-07-28T12:00:00Z",
          "2021-07-29T00:00:00Z",
          "2021-07-29T12:00:00Z",
          "2021-07-30T00:00:00Z",
          "2021-07-30T12:00:00Z",
          "2021-07-31T00:00:00Z",
          "2021-07-31T12:00:00Z",
          "2021-08-01T00:00:00Z",
          "2021-08-01T12:00:00Z",
          "2021-08-02T00:00:00Z",
          "2021-08-02T12:00:00Z"
        ],
        "phenomenonTimeStart": "2021-07-19T00:00:00Z",
        "phenomenonTimeEnd": "2021-08-02T12:00:00Z",
        "resultTime": "2021-07-19T12:00:00Z",
        "observedPropertyTitle": "Temperature",
        "observedPropertyModifier": "percentile",
        "unitOfMeasureTitle": "Celsius",
        "observedPropertyModifierValue": "25"
      }
    },
    {
      "geometry": { "coordinates": [5.2, 52.0], "type": "Point" },
      "type": "Feature",
      "properties": {
        "featureType": "MeasureTimeseriesObservation",
        "result": [
          19.2,
          21.3,
          11.4,
          21.4,
          12.9,
          23.2,
          15.2,
          21,
          13,
          21.8,
          14.7,
          26.4,
          17.3,
          24.6,
          16.5,
          23.3,
          16.4,
          23.7,
          16.4,
          23,
          16,
          22.4,
          15.7,
          21.9,
          15.1,
          22.7,
          15.5,
          22,
          14.9,
          21.1
        ],
        "timeStep": [
          "2021-07-19T00:00:00Z",
          "2021-07-19T12:00:00Z",
          "2021-07-20T00:00:00Z",
          "2021-07-20T12:00:00Z",
          "2021-07-21T00:00:00Z",
          "2021-07-21T12:00:00Z",
          "2021-07-22T00:00:00Z",
          "2021-07-22T12:00:00Z",
          "2021-07-23T00:00:00Z",
          "2021-07-23T12:00:00Z",
          "2021-07-24T00:00:00Z",
          "2021-07-24T12:00:00Z",
          "2021-07-25T00:00:00Z",
          "2021-07-25T12:00:00Z",
          "2021-07-26T00:00:00Z",
          "2021-07-26T12:00:00Z",
          "2021-07-27T00:00:00Z",
          "2021-07-27T12:00:00Z",
          "2021-07-28T00:00:00Z",
          "2021-07-28T12:00:00Z",
          "2021-07-29T00:00:00Z",
          "2021-07-29T12:00:00Z",
          "2021-07-30T00:00:00Z",
          "2021-07-30T12:00:00Z",
          "2021-07-31T00:00:00Z",
          "2021-07-31T12:00:00Z",
          "2021-08-01T00:00:00Z",
          "2021-08-01T12:00:00Z",
          "2021-08-02T00:00:00Z",
          "2021-08-02T12:00:00Z"
        ],
        "phenomenonTimeStart": "2021-07-19T00:00:00Z",
        "phenomenonTimeEnd": "2021-08-02T12:00:00Z",
        "resultTime": "2021-07-19T12:00:00Z",
        "observedPropertyTitle": "Temperature",
        "observedPropertyModifier": "percentile",
        "unitOfMeasureTitle": "Celsius",
        "observedPropertyModifierValue": "75"
      }
    },
    {
      "geometry": { "coordinates": [5.2, 52.0], "type": "Point" },
      "type": "Feature",
      "properties": {
        "featureType": "MeasureTimeseriesObservation",
        "result": [
          18.4,
          20.4,
          10.2,
          20.2,
          11.3,
          22.3,
          13.1,
          18.5,
          10.1,
          19.5,
          13,
          22,
          14.9,
          21.4,
          15.2,
          21.2,
          13.9,
          19.6,
          13.3,
          19.3,
          11.5,
          18,
          11.5,
          18.3,
          11.5,
          17.5,
          11.2,
          18.2,
          11.2,
          17
        ],
        "timeStep": [
          "2021-07-19T00:00:00Z",
          "2021-07-19T12:00:00Z",
          "2021-07-20T00:00:00Z",
          "2021-07-20T12:00:00Z",
          "2021-07-21T00:00:00Z",
          "2021-07-21T12:00:00Z",
          "2021-07-22T00:00:00Z",
          "2021-07-22T12:00:00Z",
          "2021-07-23T00:00:00Z",
          "2021-07-23T12:00:00Z",
          "2021-07-24T00:00:00Z",
          "2021-07-24T12:00:00Z",
          "2021-07-25T00:00:00Z",
          "2021-07-25T12:00:00Z",
          "2021-07-26T00:00:00Z",
          "2021-07-26T12:00:00Z",
          "2021-07-27T00:00:00Z",
          "2021-07-27T12:00:00Z",
          "2021-07-28T00:00:00Z",
          "2021-07-28T12:00:00Z",
          "2021-07-29T00:00:00Z",
          "2021-07-29T12:00:00Z",
          "2021-07-30T00:00:00Z",
          "2021-07-30T12:00:00Z",
          "2021-07-31T00:00:00Z",
          "2021-07-31T12:00:00Z",
          "2021-08-01T00:00:00Z",
          "2021-08-01T12:00:00Z",
          "2021-08-02T00:00:00Z",
          "2021-08-02T12:00:00Z"
        ],
        "phenomenonTimeStart": "2021-07-19T00:00:00Z",
        "phenomenonTimeEnd": "2021-08-02T12:00:00Z",
        "resultTime": "2021-07-19T12:00:00Z",
        "observedPropertyTitle": "Temperature",
        "observedPropertyModifier": "percentile",
        "unitOfMeasureTitle": "Celsius",
        "observedPropertyModifierValue": "10"
      }
    },
    {
      "geometry": { "coordinates": [5.2, 52.0], "type": "Point" },
      "type": "Feature",
      "properties": {
        "featureType": "MeasureTimeseriesObservation",
        "result": [
          19.6,
          21.6,
          11.8,
          21.6,
          13.5,
          23.6,
          16,
          21.6,
          14.4,
          22.9,
          15.8,
          27.5,
          18.9,
          25.2,
          17.3,
          25,
          17.4,
          24.4,
          17.8,
          24.6,
          17.7,
          24.3,
          16.7,
          26.4,
          17.9,
          26,
          18,
          26.2,
          17.1,
          23.5
        ],
        "timeStep": [
          "2021-07-19T00:00:00Z",
          "2021-07-19T12:00:00Z",
          "2021-07-20T00:00:00Z",
          "2021-07-20T12:00:00Z",
          "2021-07-21T00:00:00Z",
          "2021-07-21T12:00:00Z",
          "2021-07-22T00:00:00Z",
          "2021-07-22T12:00:00Z",
          "2021-07-23T00:00:00Z",
          "2021-07-23T12:00:00Z",
          "2021-07-24T00:00:00Z",
          "2021-07-24T12:00:00Z",
          "2021-07-25T00:00:00Z",
          "2021-07-25T12:00:00Z",
          "2021-07-26T00:00:00Z",
          "2021-07-26T12:00:00Z",
          "2021-07-27T00:00:00Z",
          "2021-07-27T12:00:00Z",
          "2021-07-28T00:00:00Z",
          "2021-07-28T12:00:00Z",
          "2021-07-29T00:00:00Z",
          "2021-07-29T12:00:00Z",
          "2021-07-30T00:00:00Z",
          "2021-07-30T12:00:00Z",
          "2021-07-31T00:00:00Z",
          "2021-07-31T12:00:00Z",
          "2021-08-01T00:00:00Z",
          "2021-08-01T12:00:00Z",
          "2021-08-02T00:00:00Z",
          "2021-08-02T12:00:00Z"
        ],
        "phenomenonTimeStart": "2021-07-19T00:00:00Z",
        "phenomenonTimeEnd": "2021-08-02T12:00:00Z",
        "resultTime": "2021-07-19T12:00:00Z",
        "observedPropertyTitle": "Temperature",
        "observedPropertyModifier": "percentile",
        "unitOfMeasureTitle": "Celsius",
        "observedPropertyModifierValue": "90"
      }
    },
    {
      "geometry": { "coordinates": [5.2, 52.0], "type": "Point" },
      "type": "Feature",
      "properties": {
        "featureType": "MeasureTimeseriesObservation",
        "result": [
          35.7,
          32.9,
          32,
          32.6,
          31.9,
          36.4,
          37.5,
          37.2,
          35.4,
          33.9,
          31.1,
          33.3,
          32.3,
          32,
          34
        ],
        "timeStep": [
          "2021-07-19T12:00:00Z",
          "2021-07-20T12:00:00Z",
          "2021-07-21T12:00:00Z",
          "2021-07-22T12:00:00Z",
          "2021-07-23T12:00:00Z",
          "2021-07-24T12:00:00Z",
          "2021-07-25T12:00:00Z",
          "2021-07-26T12:00:00Z",
          "2021-07-27T12:00:00Z",
          "2021-07-28T12:00:00Z",
          "2021-07-29T12:00:00Z",
          "2021-07-30T12:00:00Z",
          "2021-07-31T12:00:00Z",
          "2021-08-01T12:00:00Z",
          "2021-08-02T12:00:00Z"
        ],
        "phenomenonTimeStart": "2021-07-19T12:00:00Z",
        "phenomenonTimeEnd": "2021-08-02T12:00:00Z",
        "resultTime": "2021-07-19T12:00:00Z",
        "observedPropertyTitle": "Temperature",
        "observedPropertyModifier": "maximum",
        "unitOfMeasureTitle": "Celsius"
      }
    },
    {
      "geometry": { "coordinates": [5.2, 52.0], "type": "Point" },
      "type": "Feature",
      "properties": {
        "featureType": "MeasureTimeseriesObservation",
        "result": [
          " (2006)",
          " (2016)",
          " (1995)",
          " (2013)",
          " (2019)",
          " (2019)",
          " (2019)",
          " (2019)",
          " (2018)",
          " (1911)",
          " (1969)",
          " (2002)",
          " (1995)",
          " (1995)",
          " (2013)"
        ],
        "timeStep": [
          "2021-07-19T12:00:00Z",
          "2021-07-20T12:00:00Z",
          "2021-07-21T12:00:00Z",
          "2021-07-22T12:00:00Z",
          "2021-07-23T12:00:00Z",
          "2021-07-24T12:00:00Z",
          "2021-07-25T12:00:00Z",
          "2021-07-26T12:00:00Z",
          "2021-07-27T12:00:00Z",
          "2021-07-28T12:00:00Z",
          "2021-07-29T12:00:00Z",
          "2021-07-30T12:00:00Z",
          "2021-07-31T12:00:00Z",
          "2021-08-01T12:00:00Z",
          "2021-08-02T12:00:00Z"
        ],
        "phenomenonTimeStart": "2021-07-19T12:00:00Z",
        "phenomenonTimeEnd": "2021-08-02T12:00:00Z",
        "resultTime": "2021-07-19T12:00:00Z",
        "observedPropertyTitle": "Temperature",
        "observedPropertyModifier": "maximum",
        "unitOfMeasureTitle": "Celsius",
        "observedPropertyModifierValue": "year"
      }
    },
    {
      "geometry": { "coordinates": [5.2, 52.0], "type": "Point" },
      "type": "Feature",
      "properties": {
        "featureType": "MeasureTimeseriesObservation",
        "result": [
          6.3,
          4,
          5.3,
          5.8,
          4.6,
          6.1,
          5.8,
          4.8,
          4.5,
          5.1,
          5.6,
          5.1,
          5.4,
          6.3,
          4.1
        ],
        "timeStep": [
          "2021-07-20T00:00:00Z",
          "2021-07-21T00:00:00Z",
          "2021-07-22T00:00:00Z",
          "2021-07-23T00:00:00Z",
          "2021-07-24T00:00:00Z",
          "2021-07-25T00:00:00Z",
          "2021-07-26T00:00:00Z",
          "2021-07-27T00:00:00Z",
          "2021-07-28T00:00:00Z",
          "2021-07-29T00:00:00Z",
          "2021-07-30T00:00:00Z",
          "2021-07-31T00:00:00Z",
          "2021-08-01T00:00:00Z",
          "2021-08-02T00:00:00Z",
          "2021-08-03T00:00:00Z"
        ],
        "phenomenonTimeStart": "2021-07-20T00:00:00Z",
        "phenomenonTimeEnd": "2021-08-03T00:00:00Z",
        "resultTime": "2021-07-19T12:00:00Z",
        "observedPropertyTitle": "Temperature",
        "observedPropertyModifier": "minimum",
        "unitOfMeasureTitle": "Celsius"
      }
    },
    {
      "geometry": { "coordinates": [5.2, 52.0], "type": "Point" },
      "type": "Feature",
      "properties": {
        "featureType": "MeasureTimeseriesObservation",
        "result": [
          " (1927)",
          " (1902)",
          " (1978)",
          " (1908)",
          " (1902)",
          " (1973)",
          " (1922)",
          " (1963)",
          " (1920)",
          " (1962)",
          " (1915)",
          " (2015)",
          " (1902)",
          " (1929)",
          " (1929)"
        ],
        "timeStep": [
          "2021-07-20T00:00:00Z",
          "2021-07-21T00:00:00Z",
          "2021-07-22T00:00:00Z",
          "2021-07-23T00:00:00Z",
          "2021-07-24T00:00:00Z",
          "2021-07-25T00:00:00Z",
          "2021-07-26T00:00:00Z",
          "2021-07-27T00:00:00Z",
          "2021-07-28T00:00:00Z",
          "2021-07-29T00:00:00Z",
          "2021-07-30T00:00:00Z",
          "2021-07-31T00:00:00Z",
          "2021-08-01T00:00:00Z",
          "2021-08-02T00:00:00Z",
          "2021-08-03T00:00:00Z"
        ],
        "phenomenonTimeStart": "2021-07-20T00:00:00Z",
        "phenomenonTimeEnd": "2021-08-03T00:00:00Z",
        "resultTime": "2021-07-19T12:00:00Z",
        "observedPropertyTitle": "Temperature",
        "observedPropertyModifier": "minimum",
        "unitOfMeasureTitle": "Celsius",
        "observedPropertyModifierValue": "year"
      }
    },
    {
      "geometry": { "coordinates": [5.2, 52.0], "type": "Point" },
      "type": "Feature",
      "properties": {
        "featureType": "MeasureTimeseriesObservation",
        "result": [
          23,
          23,
          23.2,
          23.5,
          23.5,
          23.2,
          23.2,
          23.3,
          23.4,
          23.8,
          24.3,
          24.6,
          24.6,
          24.5,
          24.4
        ],
        "timeStep": [
          "2021-07-19T12:00:00Z",
          "2021-07-20T12:00:00Z",
          "2021-07-21T12:00:00Z",
          "2021-07-22T12:00:00Z",
          "2021-07-23T12:00:00Z",
          "2021-07-24T12:00:00Z",
          "2021-07-25T12:00:00Z",
          "2021-07-26T12:00:00Z",
          "2021-07-27T12:00:00Z",
          "2021-07-28T12:00:00Z",
          "2021-07-29T12:00:00Z",
          "2021-07-30T12:00:00Z",
          "2021-07-31T12:00:00Z",
          "2021-08-01T12:00:00Z",
          "2021-08-02T12:00:00Z"
        ],
        "phenomenonTimeStart": "2021-07-19T12:00:00Z",
        "phenomenonTimeEnd": "2021-08-02T12:00:00Z",
        "resultTime": "2021-07-19T12:00:00Z",
        "observedPropertyTitle": "Temperature",
        "observedPropertyModifier": "fcmaximum",
        "unitOfMeasureTitle": "Celsius"
      }
    },
    {
      "geometry": { "coordinates": [5.2, 52.0], "type": "Point" },
      "type": "Feature",
      "properties": {
        "featureType": "MeasureTimeseriesObservation",
        "result": [
          13.4,
          13.4,
          13.5,
          13.5,
          13.5,
          13.6,
          13.7,
          13.9,
          14.2,
          14.3,
          14.3,
          14.3,
          14,
          13.7,
          13.6
        ],
        "timeStep": [
          "2021-07-20T00:00:00Z",
          "2021-07-21T00:00:00Z",
          "2021-07-22T00:00:00Z",
          "2021-07-23T00:00:00Z",
          "2021-07-24T00:00:00Z",
          "2021-07-25T00:00:00Z",
          "2021-07-26T00:00:00Z",
          "2021-07-27T00:00:00Z",
          "2021-07-28T00:00:00Z",
          "2021-07-29T00:00:00Z",
          "2021-07-30T00:00:00Z",
          "2021-07-31T00:00:00Z",
          "2021-08-01T00:00:00Z",
          "2021-08-02T00:00:00Z",
          "2021-08-03T00:00:00Z"
        ],
        "phenomenonTimeStart": "2021-07-20T00:00:00Z",
        "phenomenonTimeEnd": "2021-08-03T00:00:00Z",
        "resultTime": "2021-07-19T12:00:00Z",
        "observedPropertyTitle": "Temperature",
        "observedPropertyModifier": "fcminimum",
        "unitOfMeasureTitle": "Celsius"
      }
    },
    {
      "geometry": { "coordinates": [5.2, 52.0], "type": "Point" },
      "type": "Feature",
      "properties": {
        "featureType": "MeasureTimeseriesObservation",
        "result": [
          23.2,
          23.3,
          23.3,
          23.4,
          23.4,
          23.5,
          23.5,
          23.5,
          23.6,
          23.6,
          23.6,
          23.6,
          23.6,
          23.6,
          23.6
        ],
        "timeStep": [
          "2021-07-19T12:00:00Z",
          "2021-07-20T12:00:00Z",
          "2021-07-21T12:00:00Z",
          "2021-07-22T12:00:00Z",
          "2021-07-23T12:00:00Z",
          "2021-07-24T12:00:00Z",
          "2021-07-25T12:00:00Z",
          "2021-07-26T12:00:00Z",
          "2021-07-27T12:00:00Z",
          "2021-07-28T12:00:00Z",
          "2021-07-29T12:00:00Z",
          "2021-07-30T12:00:00Z",
          "2021-07-31T12:00:00Z",
          "2021-08-01T12:00:00Z",
          "2021-08-02T12:00:00Z"
        ],
        "phenomenonTimeStart": "2021-07-19T12:00:00Z",
        "phenomenonTimeEnd": "2021-08-02T12:00:00Z",
        "resultTime": "2021-07-19T12:00:00Z",
        "observedPropertyTitle": "Temperature",
        "observedPropertyModifier": "normal_maximum",
        "unitOfMeasureTitle": "Celsius"
      }
    },
    {
      "geometry": { "coordinates": [5.2, 52.0], "type": "Point" },
      "type": "Feature",
      "properties": {
        "featureType": "MeasureTimeseriesObservation",
        "result": [
          13.1,
          13.1,
          13.1,
          13.1,
          13.1,
          13.2,
          13.2,
          13.2,
          13.2,
          13.2,
          13.2,
          13.2,
          13.2,
          13.2,
          13.2
        ],
        "timeStep": [
          "2021-07-20T00:00:00Z",
          "2021-07-21T00:00:00Z",
          "2021-07-22T00:00:00Z",
          "2021-07-23T00:00:00Z",
          "2021-07-24T00:00:00Z",
          "2021-07-25T00:00:00Z",
          "2021-07-26T00:00:00Z",
          "2021-07-27T00:00:00Z",
          "2021-07-28T00:00:00Z",
          "2021-07-29T00:00:00Z",
          "2021-07-30T00:00:00Z",
          "2021-07-31T00:00:00Z",
          "2021-08-01T00:00:00Z",
          "2021-08-02T00:00:00Z",
          "2021-08-03T00:00:00Z"
        ],
        "phenomenonTimeStart": "2021-07-20T00:00:00Z",
        "phenomenonTimeEnd": "2021-08-03T00:00:00Z",
        "resultTime": "2021-07-19T12:00:00Z",
        "observedPropertyTitle": "Temperature",
        "observedPropertyModifier": "normal_minimum",
        "unitOfMeasureTitle": "Celsius"
      }
    }
  ]
}
