[
  {
    "id": "screenConfigRadarTemp",
    "title": "Radar and temperature",
    "scope": "system",
    "abstract": "",
    "viewType": "multiWindow",
    "views": [
      { "mosaicNodeId": "screen_no_1", "viewPresetId": "radar" },
      { "mosaicNodeId": "screen_no_2", "viewPresetId": "temp" }
    ],
    "syncGroups": [
      { "id": "Area_RadarTemp", "type": "SYNCGROUPS_TYPE_SETBBOX" },
      { "id": "Time_RadarTemp", "type": "SYNCGROUPS_TYPE_SETTIME" }
    ],
    "mosaicNode": {
      "direction": "row",
      "first": "screen_no_1",
      "second": "screen_no_2",
      "splitPercentage": 50
    }
  },
  {
    "id": "screenConfigRadarRadar",
    "title": "Radar and Radar",
    "scope": "system",
    "abstract": "",
    "viewType": "multiWindow",
    "views": [
      { "mosaicNodeId": "view-1", "viewPresetId": "radar" },
      { "mosaicNodeId": "view-2", "viewPresetId": "radar" }
    ],
    "syncGroups": [
      { "id": "Area_RadarTemp", "type": "SYNCGROUPS_TYPE_SETBBOX" },
      { "id": "Time_RadarTemp", "type": "SYNCGROUPS_TYPE_SETTIME" }
    ],
    "mosaicNode": {
      "direction": "row",
      "first": "view-1",
      "second": "view-2",
      "splitPercentage": 50
    }
  },
  {
    "id": "screenConfigTimeSeries_knmi_timeseries_ha43_dini",
    "title": "TimeSeries EDR KNMI HA43 DINI",
    "scope": "system",
    "abstract": "This contains a very very long abstract so that you can see some ellipsis. Who knows how it will behave. ",
    "viewType": "multiWindow",
    "views": [
      {
        "mosaicNodeId": "view-1",
        "viewPresetId": "view_knmi_timeseries_ha43_dini_wms"
      },
      {
        "mosaicNodeId": "view-2",
        "viewPresetId": "view_knmi_timeseries_ha43_dini_edr"
      }
    ],
    "syncGroups": [],
    "mosaicNode": {
      "direction": "row",
      "first": "view-1",
      "second": "view-2"
    }
  },
  {
    "id": "screenConfigTimeSeries",
    "title": "TimeSeries Example",
    "scope": "system",
    "abstract": "This contains a very very long abstract so that you can see some ellipsis. Who knows how it will behave. ",
    "viewType": "multiWindow",
    "views": [
      { "mosaicNodeId": "view-1", "viewPresetId": "TimeseriesMap" },
      { "mosaicNodeId": "view-2", "viewPresetId": "Timeseries" }
    ],
    "syncGroups": [],
    "mosaicNode": {
      "direction": "row",
      "first": "view-1",
      "second": "view-2"
    }
  },
  {
    "id": "screenConfigHarmoniePrecipMSLRefTimePresetWithoutMultiMapLayerManager",
    "title": "Precipitation, pressure and wind 1:1",
    "scope": "system",
    "abstract": "",
    "viewType": "tiledWindow",
    "views": [{ "mosaicNodeId": "view-1", "viewPresetId": "harmRefTime" }],
    "syncGroups": [
      { "id": "areaLayerGroupA", "type": "SYNCGROUPS_TYPE_SETBBOX" },
      { "id": "timeLayerGroupA", "type": "SYNCGROUPS_TYPE_SETTIME" },
      { "id": "layerGroupA", "type": "SYNCGROUPS_TYPE_SETLAYERACTIONS" }
    ],
    "mosaicNode": "view-1"
  },
  {
    "id": "screenConfigHarmoniePrecipMSLRefTimePresetWithMultiMapLayerManager",
    "title": "Precipitation, pressure and wind 1:all",
    "scope": "system",
    "abstract": "",
    "viewType": "tiledWindow",
    "views": [
      {
        "mosaicNodeId": "view-1",
        "viewPresetId": "harmRefTimeAll"
      }
    ],
    "syncGroups": [
      { "id": "areaLayerGroupA", "type": "SYNCGROUPS_TYPE_SETBBOX" },
      { "id": "timeLayerGroupA", "type": "SYNCGROUPS_TYPE_SETTIME" },
      { "id": "layerGroupA", "type": "SYNCGROUPS_TYPE_SETLAYERACTIONS" }
    ],
    "mosaicNode": "view-1"
  },
  {
    "id": "screenConfigHarmoniePresetWithoutMultiMapLayerManager",
    "title": "Harmonie Temperature and Precipitation 1:1",
    "scope": "system",
    "abstract": "",
    "viewType": "tiledWindow",
    "views": [{ "mosaicNodeId": "view-1", "viewPresetId": "screenHarm" }],
    "syncGroups": [
      { "id": "areaLayerGroupA", "type": "SYNCGROUPS_TYPE_SETBBOX" },
      { "id": "timeLayerGroupA", "type": "SYNCGROUPS_TYPE_SETTIME" },
      { "id": "layerGroupA", "type": "SYNCGROUPS_TYPE_SETLAYERACTIONS" },
      { "id": "layerGroupB", "type": "SYNCGROUPS_TYPE_SETLAYERACTIONS" }
    ],
    "mosaicNode": "view-1"
  },
  {
    "id": "screenConfigHarmoniePresetWithMultiMapLayerManager",
    "title": "Harmonie Temperature and Precipitation 1:all",
    "scope": "system",
    "abstract": "",
    "viewType": "tiledWindow",
    "views": [{ "mosaicNodeId": "view-1", "viewPresetId": "screenHarmAll" }],
    "syncGroups": [
      { "id": "areaLayerGroupA", "type": "SYNCGROUPS_TYPE_SETBBOX" },
      { "id": "timeLayerGroupA", "type": "SYNCGROUPS_TYPE_SETTIME" },
      { "id": "layerGroupA", "type": "SYNCGROUPS_TYPE_SETLAYERACTIONS" },
      { "id": "layerGroupB", "type": "SYNCGROUPS_TYPE_SETLAYERACTIONS" }
    ],
    "mosaicNode": "view-1"
  },
  {
    "id": "screenConfigD",
    "title": "Radar & Sat",
    "scope": "system",
    "abstract": "",
    "viewType": "multiWindow",
    "views": [
      { "mosaicNodeId": "viewAsat", "viewPresetId": "sat" },
      { "mosaicNodeId": "viewBrad", "viewPresetId": "rad" }
    ],
    "syncGroups": [
      { "id": "Area_SatRadar", "type": "SYNCGROUPS_TYPE_SETBBOX" },
      { "id": "Time_SatRadar", "type": "SYNCGROUPS_TYPE_SETTIME" }
    ],
    "mosaicNode": {
      "direction": "row",
      "first": "viewAsat",
      "second": "viewBrad",
      "splitPercentage": 50
    }
  },
  {
    "id": "screenConfigOBS",
    "title": "OBS",
    "scope": "system",
    "abstract": "",
    "viewType": "multiWindow",
    "views": [
      { "mosaicNodeId": "map_OBSTA", "viewPresetId": "map_OBSTA" },
      { "mosaicNodeId": "map_OBSPP", "viewPresetId": "map_OBSPP" },
      { "mosaicNodeId": "map_OBSWind", "viewPresetId": "map_OBSWind" },
      { "mosaicNodeId": "map_OBSRH", "viewPresetId": "map_OBSRH" },
      { "mosaicNodeId": "map_OBSQG", "viewPresetId": "map_OBSQG" }
    ],
    "syncGroups": [
      { "id": "Area_A", "type": "SYNCGROUPS_TYPE_SETBBOX" },
      { "id": "Time_A", "type": "SYNCGROUPS_TYPE_SETTIME" }
    ],
    "mosaicNode": {
      "direction": "column",
      "first": {
        "direction": "row",
        "first": "map_OBSTA",
        "second": "map_OBSPP"
      },
      "second": {
        "direction": "row",
        "first": "map_OBSWind",
        "second": {
          "direction": "row",
          "first": "map_OBSRH",
          "second": "map_OBSQG"
        },
        "splitPercentage": 33
      }
    }
  },
  {
    "id": "screenConfigRadAndObs",
    "title": "FourMapsInOneView",
    "scope": "system",
    "abstract": "",
    "viewType": "tiledWindow",
    "views": [
      {
        "mosaicNodeId": "view-1",
        "viewPresetId": "screenRadAndObs"
      }
    ],
    "syncGroups": [
      { "id": "Area_screenRadAndObs", "type": "SYNCGROUPS_TYPE_SETBBOX" },
      { "id": "Time_screenRadAndObs", "type": "SYNCGROUPS_TYPE_SETTIME" }
    ],
    "mosaicNode": "view-1"
  },
  {
    "id": "screenConfigHarmonie",
    "title": "Harmonie",
    "scope": "system",
    "abstract": "",
    "viewType": "multiWindow",
    "views": [
      { "mosaicNodeId": "viewAharmPrecip", "viewPresetId": "harmPrecip" },
      { "mosaicNodeId": "viewBharmTemp", "viewPresetId": "harmTemp" },
      { "mosaicNodeId": "viewCharmPressure", "viewPresetId": "harmPressure" },
      { "mosaicNodeId": "viewDslider", "viewPresetId": "slider" }
    ],
    "syncGroups": [
      { "id": "Area_B", "type": "SYNCGROUPS_TYPE_SETBBOX" },
      { "id": "Time_B", "type": "SYNCGROUPS_TYPE_SETTIME" }
    ],
    "mosaicNode": {
      "direction": "column",
      "first": {
        "direction": "row",
        "first": "viewAharmPrecip",
        "second": {
          "direction": "row",
          "first": "viewBharmTemp",
          "second": "viewCharmPressure"
        },
        "splitPercentage": 33
      },
      "second": "viewDslider",
      "splitPercentage": 80
    }
  },
  {
    "id": "workspaceHarmonie",
    "title": "Harmonie",
    "scope": "system",
    "abstract": "",
    "viewType": "singleWindow",
    "views": [{ "mosaicNodeId": "screen1", "viewPresetId": "viewHarmonie" }],
    "syncGroups": [],
    "mosaicNode": "screen1"
  },
  {
    "id": "screenConfigOnlyBBOXGroup",
    "title": "SyncGroups only BBOX predefined",
    "scope": "system",
    "abstract": "",
    "viewType": "multiWindow",
    "views": [
      {
        "mosaicNodeId": "view-1",
        "viewPresetId": "demosyncgroupbbox_radar"
      },
      {
        "mosaicNodeId": "view-2",
        "viewPresetId": "demosyncgroupbbox_temp"
      }
    ],
    "syncGroups": [
      { "id": "Area_radar", "type": "SYNCGROUPS_TYPE_SETBBOX" },
      { "id": "Area_temp", "type": "SYNCGROUPS_TYPE_SETBBOX" }
    ],
    "mosaicNode": {
      "direction": "row",
      "first": "view-1",
      "second": "view-2",
      "splitPercentage": 50
    }
  },
  {
    "id": "screenConfigOnlyTIMEGroup",
    "title": "SyncGroups only TIME predefined",
    "scope": "system",
    "abstract": "",
    "viewType": "multiWindow",
    "views": [
      {
        "mosaicNodeId": "view-1",
        "viewPresetId": "demosyncgrouptime_radar"
      },
      {
        "mosaicNodeId": "view-2",
        "viewPresetId": "demosyncgrouptime_temp"
      }
    ],
    "syncGroups": [
      { "id": "Time_radar", "type": "SYNCGROUPS_TYPE_SETTIME" },
      { "id": "Time_temp", "type": "SYNCGROUPS_TYPE_SETTIME" }
    ],
    "mosaicNode": {
      "direction": "row",
      "first": "view-1",
      "second": "view-2",
      "splitPercentage": 50
    }
  },
  {
    "id": "emptyMap",
    "title": "Empty map",
    "scope": "system",
    "abstract": "",
    "viewType": "singleWindow",
    "views": [{ "mosaicNodeId": "emptyMapView", "viewPresetId": "emptyMap" }],
    "mosaicNode": "emptyMapView"
  },
  {
    "id": "radarView",
    "title": "Radar",
    "scope": "user",
    "abstract": "",
    "viewType": "singleWindow",
    "views": [{ "mosaicNodeId": "radarView", "viewPresetId": "radar" }],
    "mosaicNode": "radarView"
  },
  {
    "id": "workspaceHarmonie",
    "title": "Harmonie workspace",
    "scope": "system",
    "abstract": "",
    "viewType": "singleWindow",
    "views": [{ "mosaicNodeId": "harmView", "viewPresetId": "viewHarmonie" }],
    "mosaicNode": "harmView"
  },
  {
    "id": "capWorkspace",
    "title": "Cap Warnings",
    "scope": "system",
    "abstract": "",
    "viewType": "multiWindow",
    "views": [
      { "mosaicNodeId": "view-1", "viewPresetId": "capMapView" },
      { "mosaicNodeId": "view-2", "viewPresetId": "capListView" }
    ],
    "mosaicNode": {
      "direction": "row",
      "first": "view-1",
      "second": "view-2",
      "splitPercentage": 50
    }
  }
]
