{
  "name": "store",
  "$schema": "../../node_modules/nx/schemas/project-schema.json",
  "sourceRoot": "libs/store/src",
  "projectType": "library",
  "generators": {},
  "targets": {
    "lint": {
      "executor": "@nx/eslint:lint",
      "options": {
        "lintFilePatterns": [
          "libs/store/**/*.{ts,tsx,js,jsx}",
          "libs/store/package.json"
        ]
      }
    },
    "build": {
      "executor": "@nx/rollup:rollup",
      "options": {
        "outputPath": "dist/libs/store",
        "tsConfig": "libs/store/tsconfig.lib.json",
        "project": "libs/store/package.json",
        "entryFile": "libs/store/src/index.ts",
        "external": "all",
        "rollupConfig": "@nx/react/plugins/bundle-rollup",
        "assets": [
          {
            "glob": "README.md",
            "input": "./libs/store",
            "output": "."
          }
        ]
      },
      "outputs": ["{options.outputPath}"]
    },
    "test": {
      "executor": "@nx/jest:jest",
      "options": {
        "jestConfig": "libs/store/jest.config.js",
        "codeCoverage": true
      },
      "outputs": ["{workspaceRoot}/coverage/libs/store"]
    },
    "typecheck": {
      "executor": "nx:run-commands",
      "options": {
        "command": "tsc -p libs/store/tsconfig.lib.json"
      }
    },
    "docs": {
      "executor": "nx:run-commands",
      "options": {
        "command": "npx typedoc --out docs/store libs/store/src/index.ts --tsconfig libs/store/tsconfig.lib.json"
      }
    }
  },
  "tags": ["scope:store"]
}
