{
  "preset": {
    "presetType": "mapPreset",
    "presetId": "mapPreset-1",
    "presetName": "Layer manager preset",
    "timeSeriesServices": [
      {
        "name": "KNMI OBS",
        "url": "https://gw-edr.pub.knmi.cloud/edr",
        "id": "knmi",
        "description": "KNMI EDR",
        "type": "EDR",
        "scope": "system"
      },
      {
        "name": "KNMI Geoservices",
        "url": "https://geoservices.knmi.nl/edr",
        "id": "knmi_geoservices_edr",
        "description": "KNMI EDR on geoservices with UWCW HA43 DINI",
        "type": "EDR",
        "scope": "system"
      },
      {
        "name": "FMI",
        "url": "https://opendata.fmi.fi/edr",
        "id": "fmi",
        "description": "FMI EDR",
        "type": "EDR",
        "scope": "system"
      },
      {
        "name": "MET Norway",
        "url": "https://interpol.met.no",
        "id": "METNorway",
        "description": "MET Norway EDR",
        "type": "EDR",
        "scope": "system"
      }
    ],
    "services": [
      {
        "name": "KNMIgeoservicesRadar",
        "url": "https://geoservices.knmi.nl/wms?dataset=RADAR&",
        "id": "KNMIgeoservicesRadar"
      },
      {
        "name": "MetNorwayService",
        "url": "https://wms-e1.geoweb.met.no/wms?",
        "id": "MetNorwayService"
      },
      {
        "name": "FMIopenwms",
        "url": "https://openwms.fmi.fi/geoserver/wms?",
        "id": "FMIopenwms"
      },
      {
        "name": "ECMWF",
        "url": "https://eccharts.ecmwf.int/wms/?token=public",
        "id": "ecmwf"
      },
      {
        "name": "Harmonie HA43 DINI",
        "url": "https://geoservices.knmi.nl/adagucserver?dataset=uwcw_ha43_dini_5p5km&",
        "id": "knmi_uwcw_ha43_dini_5p5km"
      },
      {
        "name": "Harmonie HA43 NL",
        "url": "https://geoservices.knmi.nl/adagucserver?dataset=uwcw_ha43_nl_2km&",
        "id": "knmi_uwcw_ha43_nl_2km"
      },
      {
        "name": "KNMIgeoservicesObs",
        "url": "https://geoservices.knmi.nl/adagucserver?dataset=OBS",
        "id": "KNMIgeoservicesObs"
      },
      {
        "name": "DWD",
        "url": "https://maps.dwd.de/geoserver/ows?",
        "id": "dwd"
      }
    ],
    "baseServices": [
      {
        "name": "KNMIgeoservicesBaselayers",
        "url": "https://geoservices.knmi.nl/wms?DATASET=baselayers&",
        "id": "KNMIgeoservicesBaselayers"
      },
      {
        "name": "DWD",
        "url": "https://maps.dwd.de/geoserver/ows?",
        "id": "dwd"
      }
    ],
    "layers": [
      {
        "id": "layerid_2",
        "name": "WorldMap_Light_Grey_Canvas",
        "type": "twms",
        "layerType": "baseLayer"
      },
      {
        "service": "https://services.arcgisonline.com/ArcGIS/rest/services/Canvas/World_Light_Gray_Base/MapServer/tile/",
        "id": "layerid_3",
        "name": "arcGisCanvas",
        "type": "twms",
        "enabled": true,
        "layerType": "baseLayer"
      },
      {
        "id": "base-layer-2",
        "name": "OpenStreetMap_NL",
        "type": "twms",
        "layerType": "baseLayer",
        "enabled": true
      },
      {
        "service": "https://maps.heigit.org/osm-wms/service",
        "id": "layerid_5",
        "name": "osm_auto:all",
        "layerType": "baseLayer"
      }
    ]
  }
}
