<?xml version="1.0" encoding="UTF-8" standalone="no"?>
<svg
   width="47px"
   height="29px"
   viewBox="0 0 71 44"
   version="1.1"
   xmlnsXlink="http://www.w3.org/1999/xlink"
   id="svg28"
   sodipodi:docname="geoweb_icon.svg"
   inkscape:version="1.1.2 (0a00cf5339, 2022-02-04)"
   xmlns:inkscape="http://www.inkscape.org/namespaces/inkscape"
   xmlns:sodipodi="http://sodipodi.sourceforge.net/DTD/sodipodi-0.dtd"
   xmlns="http://www.w3.org/2000/svg"
   xmlns:svg="http://www.w3.org/2000/svg"
   xmlns:rdf="http://www.w3.org/1999/02/22-rdf-syntax-ns#"
   xmlns:cc="http://creativecommons.org/ns#"
   xmlns:dc="http://purl.org/dc/elements/1.1/">
  <sodipodi:namedview
     id="namedview30"
     pagecolor="#ffffff"
     bordercolor="#666666"
     borderopacity="1.0"
     inkscape:pageshadow="2"
     inkscape:pageopacity="0.0"
     inkscape:pagecheckerboard="0"
     showgrid="false"
     inkscape:zoom="24.793103"
     inkscape:cx="20.913074"
     inkscape:cy="14.479833"
     inkscape:window-width="1920"
     inkscape:window-height="1043"
     inkscape:window-x="3840"
     inkscape:window-y="0"
     inkscape:window-maximized="1"
     inkscape:current-layer="svg28" />
  <title
     id="title2">GeoWeb logo</title>
  <defs
     id="defs14">
    <linearGradient
       x1="19.010851"
       y1="1.6681473"
       x2="29.346205"
       y2="10.803224"
       id="linearGradient-1"
       gradientTransform="scale(1.0195843,0.98079192)"
       gradientUnits="userSpaceOnUse">
      <stop
         stopColor="#FFFFFF"
         stopOpacity="0.33333"
         offset="0%"
         id="stop4" />
      <stop
         stopColor="#FFFFFF"
         stopOpacity="0"
         offset="100%"
         id="stop6" />
    </linearGradient>
    <linearGradient
       x1="11.167782"
       y1="11.636649"
       x2="9.430709"
       y2="1.631289"
       id="linearGradient-2"
       gradientTransform="scale(0.93483682,1.0697054)"
       gradientUnits="userSpaceOnUse">
      <stop
         stopColor="#FFFFFF"
         stopOpacity="0"
         offset="0%"
         id="stop9" />
      <stop
         stopColor="#FFFFFF"
         stopOpacity="0.33333"
         offset="100%"
         id="stop11" />
    </linearGradient>
  </defs>
  <g
     id="g4"
     style="fill:none;stroke:none">
    <path
       d="M 29.024401,8.249684 C 22.163214,8.2583466 16.174152,12.832579 14.45446,19.377608 13.832111,19.279281 13.20312,19.227212 12.572845,19.221841 5.6290501,19.221723 1.9997778e-6,24.768616 1.9997778e-6,31.610921 1.9997778e-6,38.453225 6.6290501,44 12.572845,44 c 10.08971,0 36.927157,-0.0021 40.762179,0 2.902259,0 9.947814,-0.139503 14.941118,-6.495886 4.993303,-6.356653 1.987135,-20.017338 -0.08795,-25.854788 C 66.113114,5.8118754 59.657829,0 53.328011,0 45.886615,0 39.271577,4.0045675 35.938243,9.9192933 33.801808,8.8265541 31.431189,8.254139 29.024401,8.249684 Z"
       id="path4220"
       fill="#0b9ee5" />
    <path
       d="m 12.63568,44 c 10.139011,-0.063 20.429748,-0.02791 30.620082,-0.02791 2.832876,0 7.607624,0.0028 11.92579,0.0048 3.358449,-0.130488 9.478531,-1.248319 13.71845,-7.317441 1.578107,-2.804195 1.824103,-5.166122 1.97,-6.659501 -9.857645,-0.0032 -66.1251963,1.19e-4 -70.76283782,1.76e-4 C 0.03572139,30.3929 0,30.970609 0,31.733303 0,38.201567 6.4153136,44 12.63568,44 Z"
       id="path4220-7"
       fill="#60bce9" />
  </g>
  <g
     id="g4244"
     transform="translate(20.000002,14.5)"
     style="fill:none;stroke:none">
    <path
       d="m 33.29433,6.7247481 c 3.154736,2.2981308 4.081322,2.2039843 6.177063,5.0296859 1.003202,1.352535 1.527426,3.056296 1.528607,4.748893 0,4.692682 -3.997262,8.496712 -8.927979,8.496451 -4.930442,0 -8.92743,-3.80403 -8.92743,-8.496451 0.0016,-0.130979 0.0065,-0.261916 0.01448,-0.392691 -0.951283,-0.292165 -1.900231,-0.504511 -2.652104,-0.504511 -0.75723,0 -1.714419,0.214736 -2.672488,0.510132 0.0099,0.128856 0.01668,0.257913 0.02038,0.38707 -4.9e-5,4.692421 -3.996987,8.496451 -8.9274292,8.496451 C 3.9969876,24.999778 0,21.195748 0,16.503327 0.00164824,15.58202 0.19716824,14.681393 0.51592731,13.820898 2.0196737,8.4557778 2.931811,2.2574315 8.1156979,1.5708761 10.38346,1.2705276 12.497825,3.8841445 15.012768,3.8841445 c 2.515163,-7.32e-5 2.55972,-3.81187316 6.342436,-3.87880317 4.62277,-0.08164938 8.56674,4.26260487 11.939318,6.71940677 z M 31.9884,10.364067 c -3.641242,0 -6.592969,2.809231 -6.592969,6.274689 0,3.465458 2.951727,6.274688 6.592969,6.274688 3.641242,0 6.592969,-2.80923 6.592969,-6.274688 0,-3.465458 -2.951727,-6.274689 -6.592969,-6.274689 z m -23.1097307,0 c -3.641242,0 -6.5929693,2.809231 -6.5929693,6.274689 0,3.465458 2.9517273,6.274688 6.5929693,6.274688 3.6412417,0 6.5929687,-2.80923 6.5929687,-6.274688 0,-3.465458 -2.951727,-6.274689 -6.5929687,-6.274689 z"
       id="path4329"
       fill="#003232" />
    <path
       d="m 18.377737,1.23152 c -0.582352,0.5687221 -0.999961,1.1721118 -1.483913,1.7056956 -0.146103,0.1610869 -0.341955,0.3448725 -0.507576,0.4692682 -0.331242,0.2488176 -0.699871,0.42111 -1.144979,0.4651897 -0.07418,0.00735 -0.150504,0.011232 -0.2291,0.011234 1.399028,3.4767002 3.247312,6.8012395 5.494141,11.7216405 0.751873,0 1.700821,0.212346 2.652104,0.504511 -0.008,0.130775 -0.01283,0.261707 -0.01448,0.392691 0,2.199566 0.877964,4.204042 2.318912,5.713104 0.09606,0.100589 0.19466,0.198539 0.29564,0.294649 1.615552,1.537534 3.847822,2.488829 6.312768,2.488829 0.154083,0 0.307123,-0.0039 0.459283,-0.01124 0.913016,-0.044 1.789826,-0.218137 2.610266,-0.503988 0.273482,-0.09529 0.540843,-0.20341 0.801046,-0.322729 0.390304,-0.178967 0.764592,-0.383723 1.120832,-0.612775 2.374843,-1.526841 3.936552,-4.112797 3.936552,-7.045691 C 40.998137,14.80931 40.4265,13.136321 39.470629,11.753014 37.529329,8.9437838 35.436831,8.4161871 33.293566,6.7233285 30.047902,4.1599092 25.885266,0 21.583629,0 19.877588,0 19.018277,0.60616103 18.377797,1.2317213 Z m 13.609811,9.130717 c 1.365459,0 2.633782,0.395279 3.68602,1.071822 0.175373,0.112758 0.344757,0.233146 0.507548,0.361029 0.162808,0.127873 0.319265,0.262988 0.468403,0.404927 1.193081,1.135483 1.930999,2.704129 1.930999,4.436989 0,3.35722 -2.770421,6.098474 -6.253981,6.266583 -0.112372,0.0054 -0.225301,0.0082 -0.339099,0.0082 -1.365294,0 -2.633836,-0.394913 -3.686019,-1.071298 -1.21e-4,-7.8e-5 -5.49e-4,7.6e-5 -5.49e-4,0 -1.75373,-1.127588 -2.906401,-3.037472 -2.906401,-5.203285 0,-1.732729 0.737918,-3.301532 1.930999,-4.436989 0.149132,-0.141936 0.305584,-0.277054 0.468402,-0.404927 0.162808,-0.127873 0.331654,-0.24826 0.507027,-0.36103 1.052238,-0.676568 2.321083,-1.071821 3.686569,-1.071821 z"
       id="path4329-2"
       fill="url(#linearGradient-1)"
       style="fill:url(#linearGradient-1)" />
    <path
       d="M 8.5404774,1.547346 C 8.3998054,1.544706 8.2583533,1.552066 8.1166044,1.570837 2.9326077,2.2573923 2.020855,8.456 0.51710855,13.82112 0.19833849,14.681615 0.00260972,15.58219 9.6147468e-4,16.503549 9.6147468e-4,21.19597 3.9979491,25 8.9283912,25 c 4.9304418,0 8.9274298,-3.80403 8.9274298,-8.496451 -0.0037,-0.129159 -0.01049,-0.258209 -0.02038,-0.38707 0.961804,-0.263301 1.589262,-0.488719 2.661719,-0.50323 -1.344526,-2.974463 -3.925564,-8.3437664 -5.483428,-11.7292222 -2.357755,3e-7 -4.363172,-2.2970326 -6.4734714,-2.3366939 z m 0.3390984,8.816721 c 3.6412422,0 6.5929692,2.809231 6.5929692,6.274689 0,3.465458 -2.951727,6.274688 -6.5929692,6.274688 -3.641242,0 -6.5929692,-2.80923 -6.5929692,-6.274688 0,-3.465458 2.9517272,-6.274689 6.5929692,-6.274689 z"
       id="path4329-7"
       fill="url(#linearGradient-2)"
       style="fill:url(#linearGradient-2)" />
  </g>
  <metadata
     id="metadata847">
    <rdf:RDF>
      <cc:Work
         rdf:about="">
        <dc:title>GeoWeb logo</dc:title>
      </cc:Work>
    </rdf:RDF>
  </metadata>
</svg>
