{
  "preset": {
    "presetType": "mapPreset",
    "presetId": "mapPreset-1",
    "presetName": "Layer manager preset",
    "timeSeriesServices": [
      {
        "name": "FMI",
        "url": "https://opendata.fmi.fi/edr",
        "id": "fmi",
        "description": "FMI EDR",
        "type": "EDR",
        "scope": "system"
      },
      {
        "name": "KNMI OBS",
        "url": "https://gw-edr.pub.knmi.cloud/edr",
        "id": "knmi",
        "description": "KNMI EDR",
        "type": "EDR",
        "scope": "system"
      },
      {
        "name": "KNMI Geoservices",
        "url": "https://geoservices.knmi.nl/edr",
        "id": "knmi_geoservices_edr",
        "description": "KNMI EDR on geoservices with UWCW HA43 DINI",
        "type": "EDR",
        "scope": "system"
      },
      {
        "name": "MET Norway",
        "url": "https://interpol.met.no",
        "id": "METNorway",
        "description": "MET Norway EDR",
        "type": "EDR",
        "scope": "system"
      }
    ],
    "services": [
      {
        "name": "KNMI Radar",
        "url": "https://geoservices.knmi.nl/adagucserver?dataset=RADAR",
        "id": "knmi-radar"
      },
      {
        "name": "FMI",
        "url": "https://openwms.fmi.fi/geoserver/wms?",
        "id": "fmi"
      },
      {
        "name": "MET Norway",
        "url": "https://halo-wms.met.no/halo/default.map?",
        "id": "met-no"
      },
      {
        "name": "Harmonie HA43 DINI",
        "url": "https://geoservices.knmi.nl/adagucserver?dataset=uwcw_ha43_dini_5p5km&",
        "id": "knmi_uwcw_ha43_dini_5p5km"
      },
      {
        "name": "Harmonie HA43 NL",
        "url": "https://geoservices.knmi.nl/adagucserver?dataset=uwcw_ha43_nl_2km&",
        "id": "knmi_uwcw_ha43_nl_2km"
      },
      {
        "name": "KNMI Observations",
        "url": "https://geoservices.knmi.nl/adagucserver?dataset=OBS",
        "id": "knmi-obs"
      },
      {
        "name": "DWD",
        "url": "https://maps.dwd.de/geoserver/ows?",
        "id": "dwd"
      },
      {
        "name": "EUMETSAT",
        "url": "https://view.eumetsat.int/geoserver/wms?",
        "id": "eumetsat"
      },
      {
        "name": "ECMWF",
        "url": "https://eccharts.ecmwf.int/wms/?token=public",
        "id": "ecmwf"
      },
      {
        "name": "NOAA Tropical Cyclones",
        "url": "https://mapservices.weather.noaa.gov/tropical/services/tropical/NHC_tropical_weather/MapServer/WMSServer?",
        "id": "noaatropicalcyclones"
      }
    ],
    "layers": [
      {
        "id": "base-layer-1",
        "name": "WorldMap_Light_Grey_Canvas",
        "type": "twms",
        "layerType": "baseLayer"
      },
      {
        "id": "base-layer-2",
        "name": "OpenStreetMap_NL",
        "type": "twms",
        "layerType": "baseLayer",
        "enabled": true
      },
      {
        "id": "base-layer-3",
        "service": "https://services.arcgisonline.com/ArcGIS/rest/services/Canvas/World_Light_Gray_Base/MapServer/tile/",
        "name": "arcGisCanvas",
        "type": "twms",
        "layerType": "baseLayer",
        "enabled": true
      },
      {
        "service": "https://geoservices.knmi.nl/wms?DATASET=baselayers",
        "name": "countryborders",
        "id": "countryborders",
        "format": "image/png",
        "enabled": true,
        "layerType": "overLayer"
      }
    ]
  }
}
