{
  "preset": {
    "presetType": "mapPreset",
    "presetId": "mapPreset-1",
    "presetName": "Layer manager preset",
    "defaultMapSettings": {
      "proj": {
        "bbox": {
          "top": 7342085.640241,
          "left": -450651.2255879827,
          "right": 1428345.8183648037,
          "bottom": 6393842.957153378
        },
        "srs": "EPSG:3857"
      },
      "layers": [
        {
          "name": "WorldMap_Light_Grey_Canvas",
          "type": "twms",
          "enabled": true,
          "layerType": "baseLayer"
        },
        {
          "service": "https://adaguc-server-geoweb.geoweb.knmi.cloud/adagucserver?dataset=baselayers",
          "name": "countryborders",
          "format": "image/png",
          "enabled": true,
          "layerType": "overLayer"
        }
      ]
    },
    "timeSeriesServices": [
      {
        "name": "ECMWF (FMI)",
        "url": "https://opendata.fmi.fi/edr",
        "id": "ECMWFFMI",
        "description": "ECMWF (FMI) EDR",
        "type": "EDR",
        "scope": "system"
      },
      {
        "name": "KNMI OBS",
        "url": "https://gw-edr.pub.knmi.cloud/edr",
        "id": "knmi",
        "description": "KNMI EDR",
        "type": "EDR",
        "scope": "system"
      },
      {
        "name": "KNMI Geoservices",
        "url": "https://geoservices.knmi.nl/edr",
        "id": "knmi_geoservices_edr",
        "description": "KNMI EDR on geoservices with UWCW HA43 DINI",
        "type": "EDR",
        "scope": "system"
      },
      {
        "name": "MET Norway",
        "url": "https://interpol.met.no",
        "id": "METNorway",
        "description": "MET Norway EDR",
        "type": "EDR",
        "scope": "system"
      }
    ],
    "services": [
      {
        "name": "Radar",
        "url": "https://adaguc-server-geoweb.geoweb.knmi.cloud/adagucserver?dataset=RADAR",
        "id": "radar"
      },
      {
        "name": "CellWarn",
        "url": "https://adaguc-server-geoweb.geoweb.knmi.cloud/adagucserver?dataset=cellwarn",
        "id": "cellwarn"
      },
      {
        "name": "ECMWF \uD83C\uDF10",
        "url": "https://eccharts.ecmwf.int/wms/?token=knmi",
        "id": "ECMWFKNMI"
      },
      {
        "name": "ECMWF - NL",
        "url": "https://adaguc-server-geoweb.geoweb.knmi.cloud/adagucserver?dataset=ecmwf_oper_nl_0p1deg",
        "id": "ecmwf_oper_nl_0p1deg"
      },
      {
        "name": "ECMWF - Global",
        "url": "https://adaguc-server-geoweb.geoweb.knmi.cloud/adagucserver?dataset=ecmwf_oper_global_0p25deg",
        "id": "ecmwf_oper_global_0p25deg"
      },
      {
        "name": "ECMWF - BES",
        "url": "https://adaguc-server-geoweb.geoweb.knmi.cloud/adagucserver?dataset=ecmwf_oper_bes_0p1deg",
        "id": "ecmwf_oper_bes_0p1deg"
      },
      {
        "name": "Lightning",
        "url": "https://adaguc-server-geoweb.geoweb.knmi.cloud/adagucserver?dataset=LGT",
        "id": "lightning"
      },
      {
        "name": "PASCAL - ECMWF",
        "url": "https://adaguc-server-geoweb.geoweb.knmi.cloud/adaguc-server?DATASET=PASCAL&",
        "id": "pascalecmwf"
      },
      {
        "name": "PASCAL - UWCW",
        "url": "https://adaguc-server-geoweb.geoweb.knmi.cloud/adagucserver?dataset=PASCAL_UWCW&",
        "id": "pascaluwcw"
      },
      {
        "name": "Observations",
        "url": "https://adaguc-server-geoweb.geoweb.knmi.cloud/adagucserver?dataset=OBS",
        "id": "observations"
      },
      {
        "name": "WOW DATA - Weather On the Web",
        "url": "https://adaguc-server-geoweb.geoweb.knmi.cloud/adagucserver?dataset=WOWDATA",
        "id": "wowdata"
      },
      {
        "name": "Overlays",
        "url": "https://adaguc-server-geoweb.geoweb.knmi.cloud/adagucserver?dataset=OVL",
        "id": "overlays"
      },
      {
        "name": "Satellite",
        "url": "https://adaguc-server-geoweb.geoweb.knmi.cloud/adagucserver?dataset=SAT",
        "id": "satellite"
      },
      {
        "name": "Severe weather \uD83C\uDF10",
        "url": "https://adaguc-server-geoweb.geoweb.knmi.cloud/adagucserver?dataset=NOWCASTMIX",
        "id": "nowcastmix"
      },
      {
        "name": "BES Seismic",
        "url": "https://adaguc-server-geoweb.geoweb.knmi.cloud/adagucserver?dataset=BES_SEISMIC",
        "id": "besseismic"
      },
      {
        "name": "DWD \uD83C\uDF10",
        "url": "https://maps.dwd.de/geoserver/ows?",
        "id": "dwd"
      },
      {
        "name": "NOAA Tropical Cyclones \uD83C\uDF10",
        "url": "https://mapservices.weather.noaa.gov/tropical/services/tropical/NHC_tropical_weather/MapServer/WMSServer?",
        "id": "tropicalcyclonesnoaa"
      },
      {
        "name": "EUMETSAT \uD83C\uDF10",
        "url": "https://view.eumetsat.int/geoserver/wms?",
        "id": "eumetsat"
      },
      {
        "name": "UWCW - NL",
        "url": "https://adaguc-server-geoweb.geoweb.knmi.cloud/adaguc-server?dataset=uwcw_ha43_nl_2km",
        "id": "uwcw-nl"
      },
      {
        "name": "UWCW - DINI",
        "url": "https://adaguc-server-geoweb.geoweb.knmi.cloud/adaguc-server?dataset=uwcw_ha43_dini_5p5km",
        "id": "uwcw-dini"
      },
      {
        "name": "UWCW - BES",
        "url": "https://adaguc-server-geoweb.geoweb.knmi.cloud/adagucserver?dataset=uwcw_ha43_bess_0p05deg",
        "id": "uwc-bes"
      },
      {
        "name": "pySTEPS",
        "url": "https://adaguc-server-geoweb.geoweb.knmi.cloud/adagucserver?dataset=pySTEPS",
        "id": "pySTEPS"
      }
    ],
    "baseServices": [
      {
        "name": "KNMIBaselayers",
        "url": "https://adaguc-server-geoweb.geoweb.knmi.cloud/adagucserver?DATASET=baselayers",
        "id": "KNMIgeoservicesBaselayers"
      },
      {
        "name": "geoservicesBaselayers",
        "url": "https://geoservices.knmi.nl/wms?DATASET=baselayers",
        "id": "geoservicesbaselayers"
      },
      {
        "name": "DWD",
        "url": "https://maps.dwd.de/geoserver/ows?",
        "id": "base-dwd"
      }
    ],
    "layers": [
      {
        "id": "layerid_2",
        "name": "WorldMap_Light_Grey_Canvas",
        "type": "twms",
        "layerType": "baseLayer"
      },
      {
        "service": "https://services.arcgisonline.com/ArcGIS/rest/services/Canvas/World_Light_Gray_Base/MapServer/tile/",
        "id": "layerid_3",
        "name": "arcGisCanvas",
        "type": "twms",
        "enabled": true,
        "layerType": "baseLayer"
      },
      {
        "id": "base-layer-2",
        "name": "OpenStreetMap_NL",
        "type": "twms",
        "layerType": "baseLayer",
        "enabled": true
      },
      {
        "service": "https://maps.heigit.org/osm-wms/service",
        "id": "layerid_5",
        "name": "osm_auto:all",
        "layerType": "baseLayer"
      },
      {
        "service": "https://adaguc-server-geoweb.geoweb.knmi.cloud/adagucserver?DATASET=baselayers",
        "name": "radis-basemap-standard",
        "layerType": "baseLayer"
      }
    ]
  }
}
