[
  {
    "id": "defaultTimeseriesPreset",
    "title": "Timeseries",
    "views": {
      "byId": {
        "TimeseriesMap": {
          "title": "TimeseriesMap",
          "x": 0,
          "y": 0,
          "w": 6,
          "h": 18,
          "componentType": "Map",
          "initialProps": {
            "mapPreset": {
              "layers": [],
              "displayMapPin": true,
              "proj": {
                "bbox": {
                  "left": -450651.2255879827,
                  "bottom": 6490531.093143953,
                  "right": 1428345.8183648037,
                  "top": 7438773.776232235
                },
                "srs": "EPSG:3857"
              }
            }
          }
        },
        "Timeseries": {
          "title": "FMI ECMWF",
          "x": 6,
          "y": 0,
          "w": 6,
          "h": 18,
          "componentType": "TimeSeries",
          "initialProps": {
            "plotPreset": {
              "mapId": "TimeseriesMap",
              "plots": [
                {
                  "title": "Plot 1",
                  "plotId": "Plot_1"
                },
                {
                  "title": "Plot 2",
                  "plotId": "Plot_2"
                },
                {
                  "title": "Plot 3",
                  "plotId": "Plot_3"
                }
              ],
              "parameters": [
                {
                  "propertyName": "Pressure",
                  "plotId": "Plot_1",
                  "unit": "hPa",
                  "plotType": "line",
                  "serviceId": "fmi_ecmwf",
                  "collectionId": "ecmwf",
                  "opacity": 70
                },
                {
                  "propertyName": "Temperature",
                  "plotId": "Plot_1",
                  "unit": "C",
                  "plotType": "line",
                  "serviceId": "fmi_ecmwf",
                  "collectionId": "ecmwf",
                  "opacity": 70
                },
                {
                  "propertyName": "Precipitation1h",
                  "plotId": "Plot_2",
                  "unit": "mm/hr",
                  "plotType": "bar",
                  "serviceId": "fmi_ecmwf",
                  "collectionId": "ecmwf",
                  "opacity": 70
                },
                {
                  "propertyName": "Humidity",
                  "plotId": "Plot_3",
                  "unit": "%",
                  "plotType": "line",
                  "serviceId": "fmi_ecmwf",
                  "collectionId": "ecmwf",
                  "opacity": 70
                }
              ]
            },
            "services": [
              {
                "id": "fmi_ecmwf",
                "description": "fmi timeseries edr endpoint",
                "url": "https://opendata.fmi.fi/edr",
                "type": "EDR"
              }
            ]
          }
        }
      },
      "allIds": ["TimeseriesMap", "Timeseries"]
    }
  }
]
