{
  "location_indicator_mwo": "EHDB",
  "fir_areas": {
    "EHAA": {
      "fir_name": "AMSTERDAM FIR",
      "fir_location": {
        "type": "FeatureCollection",
        "features": [
          {
            "type": "Feature",
            "geometry": {
              "type": "Polygon",
              "coordinates": [
                [
                  [5.0, 55.0],
                  [4.331914, 55.332644],
                  [3.368817, 55.764314],
                  [2.761908, 54.379261],
                  [3.15576, 52.913554],
                  [2.000002, 51.500002],
                  [3.370001, 51.369722],
                  [3.370527, 51.36867],
                  [3.362223, 51.320002],
                  [3.36389, 51.313608],
                  [3.373613, 51.309999],
                  [3.952501, 51.214441],
                  [4.397501, 51.452776],
                  [5.078611, 51.391665],
                  [5.848333, 51.139444],
                  [5.651667, 50.824717],
                  [6.011797, 50.757273],
                  [5.934168, 51.036386],
                  [6.222223, 51.361666],
                  [5.94639, 51.811663],
                  [6.405001, 51.830828],
                  [7.053095, 52.237764],
                  [7.031389, 52.268885],
                  [7.063612, 52.346109],
                  [7.065557, 52.385828],
                  [7.133055, 52.888887],
                  [7.14218, 52.898244],
                  [7.191667, 53.3],
                  [6.5, 53.666667],
                  [6.500002, 55.000002],
                  [5.0, 55.0]
                ]
              ]
            },
            "properties": {}
          }
        ]
      },
      "location_indicator_atsr": "EHAA",
      "location_indicator_atsu": "EHAA",
      "max_hours_of_validity": 4,
      "hours_before_validity": 4,
      "cloud_lower_level_min": {
        "FT": 100
      },
      "cloud_lower_level_max": {
        "FT": 900
      },
      "cloud_level_min": {
        "FT": 100
      },
      "cloud_level_max": {
        "FT": 9900
      },
      "cloud_level_rounding_ft": 100,
      "cloud_level_rounding_m_below": 30,
      "cloud_level_rounding_m_above": 300,
      "wind_direction_rounding": 10,
      "wind_speed_min": {
        "KT": 31,
        "MPS": 0
      },
      "wind_speed_max": {
        "KT": 199,
        "MPS": 99
      },
      "visibility_max": 4900,
      "visibility_min": 0,
      "visibility_rounding_below": 50,
      "visibility_rounding_above": 100,
      "level_min": {
        "FT": 500,
        "FL": 50
      },
      "level_max": {
        "FT": 4500,
        "FL": 100
      },
      "level_rounding_FL": 5,
      "level_rounding_FT": 500,
      "level_rounding_M": 1,
      "movement_min": {
        "KT": 5,
        "KMH": 10
      },
      "movement_max": {
        "KT": 150,
        "KMH": 99
      },
      "movement_rounding_kt": 5,
      "movement_rounding_kmh": 10,
      "max_polygon_points": 7,
      "phenomenon": [
        { "code": "SFC_VIS", "description": "Surface visibility" },
        { "code": "SFC_WIND", "description": "Surface wind" },
        { "code": "OVC_CLD", "description": "Overcast cloud" },
        { "code": "BKN_CLD", "description": "Broken cloud" },
        { "code": "ISOL_CB", "description": "Isolated cumulonimbus cloud" },
        { "code": "OCNL_CB", "description": "Occasional cumulonimbus cloud" },
        { "code": "FRQ_CB", "description": "Frequent cumulonimbus cloud" },
        { "code": "ISOL_TS", "description": "Isolated thunderstorm(s)" },
        { "code": "OCNL_TS", "description": "Occasional thunderstorm(s)" },
        {
          "code": "ISOL_TSGR",
          "description": "Isolated thunderstorm(s) with hail"
        },
        {
          "code": "OCNL_TSGR",
          "description": "Occasional thunderstorm(s) with hail"
        },
        {
          "code": "ISOL_TCU",
          "description": "Isolated towering cumulus cloud"
        },
        {
          "code": "OCNL_TCU",
          "description": "Occasional towering cumulus cloud"
        },
        { "code": "FRQ_TCU", "description": "Frequent towering cumulus cloud" },
        { "code": "MOD_ICE", "description": "Moderate icing" },
        { "code": "MOD_MTW", "description": "Moderate mountain wave" },
        { "code": "MOD_TURB", "description": "Moderate turbulence" },
        { "code": "MT_OBSC", "description": "Mountains obscured" }
      ],
      "units": [
        {
          "unit_type": "level_unit",
          "allowed_units": ["FT", "FL"]
        },
        {
          "unit_type": "movement_unit",
          "allowed_units": ["KT"]
        },
        {
          "unit_type": "surfacewind_unit",
          "allowed_units": ["KT"]
        },
        {
          "unit_type": "cloud_level_unit",
          "allowed_units": ["FT"]
        }
      ]
    },
    "EZZZ": {
      "fir_name": "BRUSSEL FIR",
      "fir_location": {
        "type": "FeatureCollection",
        "features": [
          {
            "type": "Feature",
            "geometry": {
              "type": "Polygon",
              "coordinates": [
                [
                  [4.83163899984, 51.4375169997],
                  [4.83971700004, 51.4211280003],
                  [4.78471399965, 51.4327609998],
                  [4.7811030004, 51.4302970004],
                  [4.77944200025, 51.4175190002],
                  [4.80665799987, 51.4100140003],
                  [4.88973599992, 51.4160859998],
                  [4.90944699968, 51.4091530002],
                  [4.97808600027, 51.4238780003],
                  [5.01693300026, 51.4755610004],
                  [5.03137199972, 51.4852999999],
                  [5.04139699977, 51.4866750004],
                  [5.05027800013, 51.4747000003],
                  [5.06139400013, 51.4719500003],
                  [5.10058599984, 51.4399779999],
                  [5.07663599975, 51.3988970003],
                  [5.07864199963, 51.3916780001],
                  [5.12780000027, 51.3497389997],
                  [5.14000300004, 51.3208609998],
                  [5.14945799989, 51.3171939998],
                  [5.178908, 51.3166780003],
                  [5.22806699979, 51.3122110002],
                  [5.22523100031, 51.2688940001],
                  [5.25029999985, 51.2633360001],
                  [5.32971099986, 51.2621920004],
                  [5.34724199982, 51.2694670004],
                  [5.38752200024, 51.2677470002],
                  [5.46779400039, 51.2827610001],
                  [5.517222, 51.2958330004],
                  [5.54250799964, 51.2769170004],
                  [5.55780600005, 51.2639109996],
                  [5.55666699968, 51.2558330003],
                  [5.5572329997, 51.2313669998],
                  [5.5591809996, 51.2244330002],
                  [5.64942199993, 51.2016859998],
                  [5.65555300027, 51.1964140004],
                  [5.71055599976, 51.1822219997],
                  [5.73553599969, 51.1916609998],
                  [5.77696099985, 51.180258],
                  [5.77942500016, 51.1694279997],
                  [5.82806899958, 51.1669640003],
                  [5.85500000045, 51.1510939996],
                  [5.85601899978, 51.1473080004],
                  [5.8472219997, 51.1352779996],
                  [5.81695299958, 51.1225030004],
                  [5.84056100009, 51.1058309996],
                  [5.80641099997, 51.0958610003],
                  [5.80280299996, 51.093339],
                  [5.80222800042, 51.0616560003],
                  [5.7752999997, 51.0597080004],
                  [5.77140299985, 51.0475029997],
                  [5.76332499965, 51.0394250004],
                  [5.76303899995, 51.0352999999],
                  [5.7747280003, 51.028594],
                  [5.77696099985, 51.0258470001],
                  [5.76418599978, 50.9899779999],
                  [5.74802800019, 50.9819579997],
                  [5.72276099962, 50.9652829996],
                  [5.72390600026, 50.9577779998],
                  [5.72831700043, 50.9561169996],
                  [5.74418900032, 50.9577779998],
                  [5.72974999996, 50.9141749999],
                  [5.7150249999, 50.9105669999],
                  [5.68406700039, 50.8831669999],
                  [5.66555600021, 50.8769439998],
                  [5.65331699968, 50.8783079997],
                  [5.64776099977, 50.8677670001],
                  [5.63750299976, 50.8502920001],
                  [5.63945299976, 50.8430719999],
                  [5.6472220001, 50.8324999998],
                  [5.70001400015, 50.8069169999],
                  [5.70052799957, 50.8033079999],
                  [5.69806400015, 50.7999859996],
                  [5.69694399977, 50.7897220002],
                  [5.6933110004, 50.762514],
                  [5.69308099969, 50.7591919997],
                  [5.73719699984, 50.7594190003],
                  [5.76195000009, 50.7763810001],
                  [5.7747280003, 50.7816500002],
                  [5.77862200001, 50.7794169998],
                  [5.77999699956, 50.7758639996],
                  [5.79747499977, 50.7694469996],
                  [5.80417800041, 50.7647499997],
                  [5.83888900033, 50.7616669996],
                  [5.84720599986, 50.7669250002],
                  [5.85471099971, 50.7591919997],
                  [5.88307199997, 50.7664109999],
                  [5.89250000037, 50.7544440002],
                  [5.93251899955, 50.756956],
                  [5.99888899983, 50.7538889998],
                  [6.01163300026, 50.7566690003],
                  [6.01611400006, 50.765264],
                  [6.06666700028, 50.7166670001],
                  [6.11666700018, 50.7333329997],
                  [6.16666700008, 50.6666670002],
                  [6.2500000002, 50.6499999996],
                  [6.28333300042, 50.6166670003],
                  [6.2500000002, 50.5999999997],
                  [6.2500000002, 50.583333],
                  [6.2000000003, 50.5499999998],
                  [6.1986110001, 50.5194439999],
                  [6.2500000002, 50.4833330002],
                  [6.35, 50.4666669997],
                  [6.37388899998, 50.4349999999],
                  [6.38333300022, 50.4333330003],
                  [6.40833300017, 50.3333329996],
                  [6.3000000001, 50.316667],
                  [6.29916700036, 50.303056],
                  [6.23166700013, 50.2388889997],
                  [6.1500000004, 50.1499999997],
                  [6.13301100026, 50.1268060003],
                  [6.11655799965, 50.0714689998],
                  [6.12647199998, 50.0711830001],
                  [6.11322499973, 50.0586359998],
                  [6.13316099998, 50.0435579996],
                  [6.14093299956, 49.9935890002],
                  [6.16349999973, 49.9814360001],
                  [6.15971699974, 49.9746389996],
                  [6.17998600005, 49.9583389997],
                  [6.18282499967, 49.9675310001],
                  [6.18998899999, 49.9667970004],
                  [6.21388899958, 49.955556],
                  [6.22060299983, 49.9355170004],
                  [6.22500000025, 49.9083329996],
                  [6.23418300015, 49.897519],
                  [6.30860799956, 49.8644609999],
                  [6.32110000006, 49.8483030003],
                  [6.32195800006, 49.8399940002],
                  [6.34109700043, 49.8475000001],
                  [6.36917200009, 49.8419420001],
                  [6.4435970004, 49.8094560003],
                  [6.50307200017, 49.8072219998],
                  [6.51304200039, 49.8041860001],
                  [6.5222080004, 49.8111170004],
                  [6.52140600029, 49.7974810002],
                  [6.50668100023, 49.7863670003],
                  [6.51751099963, 49.7580609999],
                  [6.49997799959, 49.7419610003],
                  [6.5166500004, 49.7194439997],
                  [6.49779999987, 49.7203029998],
                  [6.50141100002, 49.7060940001],
                  [6.46111099957, 49.6916670003],
                  [6.42085300017, 49.6658169999],
                  [6.42056400033, 49.6602579998],
                  [6.43805600028, 49.6541670004],
                  [6.42499999985, 49.638889],
                  [6.42499999985, 49.6333330001],
                  [6.37944399984, 49.5969440002],
                  [6.3719220001, 49.5872059999],
                  [6.3750139997, 49.5822220002],
                  [6.36137800039, 49.5752889998],
                  [6.37335300044, 49.549161],
                  [6.36779699963, 49.5422280004],
                  [6.36166700023, 49.4543310003],
                  [6.2805329999, 49.4930689997],
                  [6.21666699998, 49.5000000001],
                  [6.15304999986, 49.5025220004],
                  [6.15969699972, 49.4933560004],
                  [6.12251400002, 49.4839029997],
                  [6.11804199974, 49.469692],
                  [6.09054199961, 49.4530749999],
                  [6.06916899965, 49.4633329999],
                  [6.04321399973, 49.4534189996],
                  [5.9999999998, 49.4500000002],
                  [5.95833300017, 49.4833330004],
                  [5.8511029997, 49.5052720004],
                  [5.80858100021, 49.5446939999],
                  [5.75833299967, 49.5361109998],
                  [5.48333300022, 49.5000000001],
                  [5.4000000001, 49.6083330002],
                  [5.31666699998, 49.6166669996],
                  [5.3000000003, 49.6666670004],
                  [5.17499999965, 49.6916670003],
                  [5.06666699958, 49.7583329999],
                  [5.0, 49.7833329998],
                  [4.8500000003, 49.7833329998],
                  [4.85833299967, 49.9166669999],
                  [4.8000000004, 49.9500000001],
                  [4.83888899963, 50.0472220004],
                  [4.87222199985, 50.088889],
                  [4.86749999973, 50.1152780002],
                  [4.87022799962, 50.1267969999],
                  [4.89647500042, 50.1402000001],
                  [4.88140799988, 50.1486169998],
                  [4.87752199964, 50.1560970003],
                  [4.85856400043, 50.1539169996],
                  [4.83766699993, 50.1585920002],
                  [4.82454400001, 50.1676309998],
                  [4.81676900029, 50.1657609999],
                  [4.80753599989, 50.1536059996],
                  [4.76428099987, 50.1377080003],
                  [4.7499999996, 50.1180559997],
                  [4.74027800003, 50.1083330001],
                  [4.73317799996, 50.1093419998],
                  [4.71540300045, 50.0977579998],
                  [4.68333300002, 50.0],
                  [4.48333300042, 49.9333330004],
                  [4.18333300012, 49.9500000001],
                  [4.12499999995, 50.0166669997],
                  [4.14888899993, 50.0347220004],
                  [4.1999999998, 50.0999999998],
                  [4.11666699968, 50.1499999997],
                  [4.16666699958, 50.2500000004],
                  [4.17222200035, 50.2833329997],
                  [4.01666699988, 50.3500000002],
                  [3.9000000004, 50.316667],
                  [3.79166700033, 50.3333329996],
                  [3.7099999997, 50.3083329997],
                  [3.6599999998, 50.3719440004],
                  [3.61666699978, 50.4833330002],
                  [3.40499999995, 50.4633329997],
                  [3.27666700028, 50.5300000002],
                  [3.22499999995, 50.6783330004],
                  [3.11666699988, 50.7833329996],
                  [2.8999999997, 50.7000000004],
                  [2.81666699958, 50.7250000003],
                  [2.71666699978, 50.8000000002],
                  [2.63333299962, 50.8166669999],
                  [2.5500000004, 51.0833329999],
                  [1.9999999997, 51.1166670002],
                  [1.9999999997, 51.4999999997],
                  [3.0000000004, 51.4086179998],
                  [3.10027800043, 51.3994440003],
                  [3.36388899988, 51.3736109997],
                  [3.38724200032, 51.3413280003],
                  [3.38377200038, 51.3313580001],
                  [3.36248900007, 51.3184579996],
                  [3.37401700018, 51.3050059998],
                  [3.36470599978, 51.3019560004],
                  [3.36492800013, 51.2987639998],
                  [3.3813890002, 51.2836109997],
                  [3.42589999969, 51.2589609998],
                  [3.43277200003, 51.2486970004],
                  [3.45504400008, 51.2451440002],
                  [3.49817799991, 51.2463390004],
                  [3.53010600009, 51.2507780001],
                  [3.52079199955, 51.2930780001],
                  [3.52611400036, 51.2955750002],
                  [3.54363099967, 51.2896110003],
                  [3.56447200028, 51.2968220001],
                  [3.58376100037, 51.2897499996],
                  [3.58575599974, 51.3012609998],
                  [3.59285000043, 51.3063919999],
                  [3.6037139996, 51.3037579998],
                  [3.64140600029, 51.2876689998],
                  [3.65204699997, 51.2872530004],
                  [3.65847799976, 51.2835080004],
                  [3.69151399977, 51.2815669999],
                  [3.71390800005, 51.2744940002],
                  [3.73109999967, 51.2727249996],
                  [3.75780600005, 51.2722750004],
                  [3.76866900007, 51.2646470003],
                  [3.77842500031, 51.2670030001],
                  [3.79084200006, 51.2625669997],
                  [3.79061899967, 51.2514719997],
                  [3.79039700022, 51.2199890003],
                  [3.80370000035, 51.2145779999],
                  [3.84560600022, 51.2120829999],
                  [3.86400799987, 51.2141639997],
                  [3.87886100043, 51.2273390002],
                  [3.88846099978, 51.2265610003],
                  [3.88839700042, 51.217214],
                  [3.88462800018, 51.2088920003],
                  [3.91278600007, 51.209725],
                  [3.92298299997, 51.220958],
                  [3.9300779998, 51.2226220003],
                  [3.93916899995, 51.2165219996],
                  [3.94870299984, 51.215828],
                  [3.97109700013, 51.2215139996],
                  [4.10833300027, 51.2708330004],
                  [4.25143300013, 51.3750060002],
                  [4.33391100039, 51.3766670004],
                  [4.34307800045, 51.3647500003],
                  [4.3469750003, 51.3625169999],
                  [4.41859199972, 51.3591360004],
                  [4.43165799972, 51.3644639997],
                  [4.42805599998, 51.3744440004],
                  [4.3966499996, 51.4169469999],
                  [4.40942499966, 51.4375169997],
                  [4.40805000011, 51.440839],
                  [4.39389999959, 51.4502919998],
                  [4.46528900019, 51.4716639997],
                  [4.4986109999, 51.4788890001],
                  [4.51250000007, 51.4805559997],
                  [4.54556100034, 51.4850140002],
                  [4.54498900004, 51.4627830002],
                  [4.53805599958, 51.4524690003],
                  [4.53530599957, 51.4397500002],
                  [4.62361099965, 51.4272219998],
                  [4.67166899992, 51.4274890004],
                  [4.67304400038, 51.4308109998],
                  [4.66863300021, 51.440839],
                  [4.68415800029, 51.4494329997],
                  [4.69859699975, 51.4644440004],
                  [4.76918600033, 51.502775],
                  [4.80833299977, 51.4999999997],
                  [4.8408059999, 51.4830670003],
                  [4.84470299974, 51.4614079998],
                  [4.83696700003, 51.4569389996],
                  [4.83163899984, 51.4375169997]
                ]
              ]
            },
            "properties": {}
          }
        ]
      },
      "location_indicator_atsr": "EZZZ",
      "location_indicator_atsu": "EZZZ",
      "max_hours_of_validity": 4,
      "hours_before_validity": 4,
      "movement_rounding_kt": 5,
      "movement_rounding_kmh": 10,
      "max_polygon_points": 20,
      "phenomenon": [
        { "code": "SFC_VIS", "description": "Surface visibility" },
        { "code": "SFC_WIND", "description": "Surface wind" },
        { "code": "OVC_CLD", "description": "Overcast cloud" },
        { "code": "BKN_CLD", "description": "Broken cloud" },
        { "code": "ISOL_CB", "description": "Isolated cumulonimbus cloud" },
        { "code": "OCNL_CB", "description": "Occasional cumulonimbus cloud" },
        { "code": "FRQ_CB", "description": "Frequent cumulonimbus cloud" },
        { "code": "ISOL_TS", "description": "Isolated thunderstorm(s)" },
        { "code": "OCNL_TS", "description": "Occasional thunderstorm(s)" },
        {
          "code": "ISOL_TSGR",
          "description": "Isolated thunderstorm(s) with hail"
        },
        {
          "code": "OCNL_TSGR",
          "description": "Occasional thunderstorm(s) with hail"
        },
        {
          "code": "ISOL_TCU",
          "description": "Isolated towering cumulus cloud"
        },
        {
          "code": "OCNL_TCU",
          "description": "Occasional towering cumulus cloud"
        },
        { "code": "FRQ_TCU", "description": "Frequent towering cumulus cloud" },
        { "code": "MOD_ICE", "description": "Moderate icing" },
        { "code": "MOD_MTW", "description": "Moderate mountain wave" },
        { "code": "MOD_TURB", "description": "Moderate turbulence" },
        { "code": "MT_OBSC", "description": "Mountains obscured" }
      ],
      "units": [
        {
          "unit_type": "level_unit",
          "allowed_units": ["FT", "FL"]
        },
        {
          "unit_type": "movement_unit",
          "allowed_units": ["KT", "KMH"]
        },
        {
          "unit_type": "surfacewind_unit",
          "allowed_units": ["KT"]
        },
        {
          "unit_type": "cloud_level_unit",
          "allowed_units": ["FT"]
        }
      ]
    }
  },
  "valid_from_delay_minutes": 30,
  "default_validity_minutes": 60,
  "active_firs": ["EHAA", "EZZZ"],
  "mapPreset": {
    "layers": [
      {
        "id": "baseLayer-airmet",
        "name": "WorldMap_Light_Grey_Canvas",
        "type": "twms",
        "layerType": "baseLayer"
      },
      {
        "id": "countryborder-airmet",
        "name": "countryborders",
        "layerType": "overLayer",
        "format": "image/png",
        "enabled": true,
        "service": "https://geoservices.knmi.nl/wms?DATASET=baselayers&"
      },
      {
        "id": "northseastations-airmet",
        "name": "northseastations",
        "layerType": "overLayer",
        "service": "https://adaguc-server-geoweb.geoweb.knmi.cloud/adagucserver?dataset=OVL",
        "format": "image/png",
        "enabled": true
      },
      {
        "id": "airports-airmet",
        "name": "airports",
        "layerType": "overLayer",
        "service": "https://adaguc-server-geoweb.geoweb.knmi.cloud/adagucserver?dataset=OVL",
        "format": "image/png",
        "enabled": true
      }
    ],
    "proj": {
      "bbox": {
        "left": -1205884.85699446,
        "bottom": 5808323.764379622,
        "right": 2219822.701688853,
        "top": 8298305.647311475
      },
      "srs": "EPSG:3857"
    }
  }
}
