[
  {
    "uuid": "59ed70f6-24d8-11ec-8712-571288666013",
    "taf": {
      "messageType": "ORG",
      "location": "EHAM",
      "validDateStart": "2021-10-04T12:00:00Z",
      "uuid": "59ed70f6-24d8-11ec-8712-571288666013",
      "baseTime": "2021-10-04T12:00:00Z",
      "validDateEnd": "2021-10-05T18:00:00Z",
      "baseForecast": {
        "valid": {
          "start": "2021-10-04T12:00:00Z",
          "end": "2021-10-05T18:00:00Z"
        }
      },
      "status": "NEW"
    },
    "creationDate": "2021-10-04T12:00:00Z",
    "canbe": ["DRAFTED", "DISCARDED", "PUBLISHED"],
    "editor": "max.verstappen"
  },
  {
    "uuid": "59ed70f6-24d8-11ec-8712-571288666014",
    "taf": {
      "messageType": "ORG",
      "location": "TNCB",
      "validDateStart": "2021-10-04T12:00:00Z",
      "uuid": "59ed70f6-24d8-11ec-8712-571288666013",
      "baseTime": "2021-10-04T12:00:00Z",
      "validDateEnd": "2021-10-05T18:00:00Z",
      "baseForecast": {
        "valid": {
          "start": "2021-10-04T12:00:00Z",
          "end": "2021-10-05T18:00:00Z"
        }
      },
      "status": "NEW"
    },
    "creationDate": "2021-10-04T12:00:00Z",
    "canbe": ["DRAFTED", "DISCARDED", "PUBLISHED"],
    "editor": "max.verstappen"
  },
  {
    "uuid": "c4b2ccc9-2473-11ec-af4a-8df6f46bc848",
    "taf": {
      "messageType": "ORG",
      "location": "TNCB",
      "validDateStart": "2021-10-04T00:00:00Z",
      "uuid": "c4b2ccc9-2473-11ec-af4a-8df6f46bc848",
      "baseTime": "2021-10-04T00:00:00Z",
      "validDateEnd": "2021-10-05T06:00:00Z",
      "baseForecast": {
        "valid": {
          "start": "2021-10-04T00:00:00Z",
          "end": "2021-10-05T06:00:00Z"
        },
        "wind": { "direction": 180, "speed": 10, "unit": "KT" },
        "cavOK": true
      },
      "changeGroups": [
        {
          "valid": {
            "start": "2021-10-04T02:00:00Z",
            "end": "2021-10-04T04:00:00Z"
          },
          "visibility": {
            "range": 1000,
            "unit": "M"
          },
          "weather": {
            "weather1": "MIFG"
          },
          "cloud": {
            "cloud1": "NSC"
          },
          "change": "BECMG"
        },
        {
          "valid": {
            "start": "2021-10-04T04:00:00Z"
          },
          "visibility": {
            "range": 6000,
            "unit": "M"
          },
          "weather": {
            "weather1": "+SHRA"
          },
          "cloud": {
            "cloud1": {
              "coverage": "BKN",
              "height": 40
            },
            "cloud2": {
              "coverage": "OVC",
              "height": 60,
              "type": "CB"
            }
          },
          "change": "FM"
        }
      ],
      "status": "EXPIRED"
    },
    "creationDate": "2021-10-04T00:00:00Z",
    "canbe": []
  }
]
