[
  {
    "id": "b6daea16-46db-497a-865e-9e7320ad8d12",
    "lastUpdatedTime": "2023-12-06T06:56:39Z",
    "status": "TODO",
    "warningDetail": {
      "id": "b6daea16-46db-497a-865e-9e7320ad8d12",
      "phenomenon": "wind",
      "geoJSON": {
        "type": "FeatureCollection",
        "features": [
          {
            "type": "Feature",
            "geometry": {
              "type": "Polygon",
              "coordinates": [
                [
                  [5.85, 53.5],
                  [5.8806901106, 53.5306901106],
                  [5.8307113686, 53.5275952683],
                  [5.6597877094, 53.5325946796],
                  [5.6584259036, 53.5326159539],
                  [5.5831325046, 53.5327665984],
                  [5.57114459, 53.5313329254],
                  [5.4888185611, 53.5111814389],
                  [5.5, 53.5],
                  [5.6, 53.4],
                  [5.7, 53.3833333333],
                  [5.75, 53.4],
                  [5.8, 53.45],
                  [5.85, 53.5]
                ]
              ]
            },
            "properties": {
              "fill": "#fae21e",
              "stroke": "#fae21e",
              "fill-opacity": 0.2,
              "stroke-width": 2,
              "selectionType": "poly",
              "warning_level": "1",
              "stroke-opacity": 1
            }
          }
        ]
      },
      "validFrom": "2023-12-19T00:00:00Z",
      "validUntil": "2023-12-20T00:00:00Z",
      "level": "moderate",
      "domain": "public",
      "warningProposalSource": "PASCAL-ECMWF-EPS",
      "authority": "KNMI",
      "type": 1
    }
  },
  {
    "id": "bcbb6f28-235c-495f-b1a3-976c49079ca0",
    "lastUpdatedTime": "2023-12-06T06:56:39Z",
    "status": "TODO",
    "warningDetail": {
      "id": "bcbb6f28-235c-495f-b1a3-976c49079ca0",
      "phenomenon": "highTemp",
      "geoJSON": {
        "type": "FeatureCollection",
        "features": [
          {
            "type": "Feature",
            "geometry": {
              "type": "Polygon",
              "coordinates": [
                [
                  [6.6, 53.6],
                  [6.6366225551, 53.6183112776],
                  [6.6223825394, 53.6203037828],
                  [6.5181105804, 53.6151103358],
                  [6.5141415498, 53.6147536502],
                  [6.3688734368, 53.5958374422],
                  [6.3648329277, 53.5951417883],
                  [6.2483980021, 53.5701407766],
                  [6.1552617629, 53.5686530705],
                  [6.144801414, 53.5673753257],
                  [6.1069679905, 53.5586314937],
                  [6.1066699795, 53.5585616577],
                  [6.0276590975, 53.5397908964],
                  [5.9170578817, 53.5329421183],
                  [5.95, 53.5],
                  [6, 53.4857142857],
                  [6.1, 53.4777777778],
                  [6.2, 53.4888888889],
                  [6.3, 53.4888888889],
                  [6.4, 53.5],
                  [6.5, 53.55],
                  [6.6, 53.6]
                ]
              ]
            },
            "properties": {
              "fill": "#fae21e",
              "stroke": "#fae21e",
              "fill-opacity": 0.2,
              "stroke-width": 2,
              "selectionType": "poly",
              "warning_level": "1",
              "stroke-opacity": 1
            }
          }
        ]
      },
      "validFrom": "2023-12-19T00:00:00Z",
      "validUntil": "2023-12-20T00:00:00Z",
      "level": "moderate",
      "domain": "public",
      "warningProposalSource": "PASCAL-ECMWF-EPS",
      "authority": "KNMI",
      "type": 1
    }
  },
  {
    "id": "6053fdab-a258-4bba-9d7a-5467714cc808",
    "lastUpdatedTime": "2023-12-06T06:56:38Z",
    "status": "TODO",
    "warningDetail": {
      "id": "6053fdab-a258-4bba-9d7a-5467714cc808",
      "phenomenon": "",
      "geoJSON": {
        "type": "FeatureCollection",
        "features": [
          {
            "type": "Feature",
            "geometry": {
              "type": "Polygon",
              "coordinates": [
                [
                  [4.9, 53.2],
                  [5, 53.3],
                  [4.9628960039, 53.3371039961],
                  [4.9165876577, 53.3200582243],
                  [4.912319181, 53.3182583581],
                  [4.8079483255, 53.2684344711],
                  [4.793598154, 53.258124288],
                  [4.783730362, 53.2434663898],
                  [4.775543993, 53.2248800377],
                  [4.7459451243, 53.1885137189],
                  [4.8, 53.175],
                  [4.9, 53.2]
                ]
              ]
            },
            "properties": {
              "fill": "#fae21e",
              "stroke": "#fae21e",
              "fill-opacity": 0.2,
              "stroke-width": 2,
              "selectionType": "poly",
              "warning_level": "1",
              "stroke-opacity": 1
            }
          }
        ]
      },
      "validFrom": "2023-12-18T00:00:00Z",
      "validUntil": "2023-12-19T00:00:00Z",
      "level": "moderate",
      "domain": "public",
      "warningProposalSource": "PASCAL-ECMWF-EPS",
      "authority": "KNMI",
      "type": 1
    }
  },
  {
    "id": "5eb1c7d3-f052-453d-8e39-e51e8b855754",
    "lastUpdatedTime": "2023-12-06T06:56:38Z",
    "status": "TODO",
    "warningDetail": {
      "id": "5eb1c7d3-f052-453d-8e39-e51e8b855754",
      "phenomenon": "lowTemp",
      "geoJSON": {
        "type": "FeatureCollection",
        "features": [
          {
            "type": "Feature",
            "geometry": {
              "type": "Polygon",
              "coordinates": [
                [
                  [4.16, 52.1],
                  [4.1571427251, 52.1023810624],
                  [4.1478726839, 52.0949785474],
                  [4.0580623102, 52.0529346856],
                  [3.9881075043, 52.0461220122],
                  [3.97291061, 52.042164276],
                  [3.9596908617, 52.0336879839],
                  [3.9136772097, 51.9926879189],
                  [3.9026030412, 51.9784703775],
                  [3.8972887336, 51.9612502199],
                  [3.89842467, 51.9432645217],
                  [3.9077282473, 51.9059392989],
                  [3.9081897942, 51.9032759177],
                  [4, 51.94],
                  [4.04, 51.9],
                  [4.1, 51.85],
                  [4.15, 51.9],
                  [4.2, 51.95],
                  [4.26, 52],
                  [4.2, 52.06],
                  [4.16, 52.1]
                ]
              ]
            },
            "properties": {
              "fill": "#fae21e",
              "stroke": "#fae21e",
              "fill-opacity": 0.2,
              "stroke-width": 2,
              "selectionType": "poly",
              "warning_level": "1",
              "stroke-opacity": 1
            }
          }
        ]
      },
      "validFrom": "2023-12-11T00:00:00Z",
      "validUntil": "2023-12-12T00:00:00Z",
      "level": "moderate",
      "domain": "public",
      "warningProposalSource": "PASCAL-ECMWF-EPS",
      "authority": "KNMI",
      "type": 1
    }
  },
  {
    "id": "7688a48e-db0b-43b3-a467-e00353f3eb34",
    "lastUpdatedTime": "2023-12-06T06:56:38Z",
    "status": "TODO",
    "warningDetail": {
      "id": "7688a48e-db0b-43b3-a467-e00353f3eb34",
      "phenomenon": "wind",
      "geoJSON": {
        "type": "FeatureCollection",
        "features": [
          {
            "type": "Feature",
            "geometry": {
              "type": "Polygon",
              "coordinates": [
                [
                  [3.6, 51.7],
                  [3.6, 51.7106311861],
                  [3.5975728054, 51.7087559802],
                  [3.5968531479, 51.7081893845],
                  [3.513033305, 51.6409442296],
                  [3.4764203459, 51.6445536642],
                  [3.4293478032, 51.6535701899],
                  [3.4112605682, 51.6537035793],
                  [3.3943093801, 51.647393026],
                  [3.3807125788, 51.635464369],
                  [3.3083905033, 51.5439486005],
                  [3.3005139255, 51.5297122623],
                  [3.2976251421, 51.5137007435],
                  [3.2959010114, 51.3993168352],
                  [3.3, 51.4],
                  [3.35, 51.5],
                  [3.4, 51.5333333333],
                  [3.4333333333, 51.5],
                  [3.5, 51.45],
                  [3.5666666667, 51.4],
                  [3.6, 51.3916666667],
                  [3.6166666667, 51.4],
                  [3.7, 51.4833333333],
                  [3.7166666667, 51.5],
                  [3.8, 51.5416666667],
                  [3.9, 51.6],
                  [4, 51.7],
                  [3.9, 51.8],
                  [3.9, 51.8963041489],
                  [3.8816592482, 51.8828078273],
                  [3.7529336668, 51.8268554065],
                  [3.7422966449, 51.8205669592],
                  [3.6467472607, 51.7467472607],
                  [3.6, 51.7]
                ]
              ]
            },
            "properties": {
              "fill": "#fae21e",
              "stroke": "#fae21e",
              "fill-opacity": 0.2,
              "stroke-width": 2,
              "selectionType": "poly",
              "warning_level": "1",
              "stroke-opacity": 1
            }
          }
        ]
      },
      "validFrom": "2023-12-11T00:00:00Z",
      "validUntil": "2023-12-12T00:00:00Z",
      "level": "moderate",
      "domain": "public",
      "warningProposalSource": "PASCAL-ECMWF-EPS",
      "authority": "KNMI",
      "type": 1
    }
  },
  {
    "id": "550c2b5e-937d-11ee-a1bf-0ab3cf8a98c1",
    "lastUpdatedTime": "2023-12-05T14:48:20Z",
    "status": "DRAFT",
    "editor": "user.name",
    "warningDetail": {
      "phenomenon": "fog",
      "geoJSON": {
        "type": "FeatureCollection",
        "features": [
          {
            "type": "Feature",
            "geometry": {
              "type": "Polygon",
              "coordinates": [
                [
                  [5.0950448864466225, 53.492000941975654],
                  [4.280148780801422, 52.46455621916433],
                  [6.878229305858475, 52.98133263853793],
                  [5.0950448864466225, 53.492000941975654]
                ]
              ]
            },
            "properties": {
              "fill": "#ff7800",
              "stroke": "#ff7800",
              "fill-opacity": 0.2,
              "stroke-width": 2,
              "selectionType": "poly",
              "stroke-opacity": 1
            }
          }
        ]
      },
      "validFrom": "2023-12-05T14:48:09Z",
      "validUntil": "2023-12-05T18:48:09Z",
      "level": "moderate",
      "probability": 30
    }
  },
  {
    "id": "078e6676-937d-11ee-b619-0ab3cf8a98c1",
    "lastUpdatedTime": "2023-12-05T14:46:10Z",
    "status": "DRAFT",
    "editor": "other.user",
    "warningDetail": {
      "phenomenon": "coastalEvent",
      "geoJSON": {
        "type": "FeatureCollection",
        "features": [
          {
            "type": "Feature",
            "geometry": {
              "type": "Polygon",
              "coordinates": [
                [
                  [5.0950448864466225, 53.492000941975654],
                  [4.280148780801422, 52.46455621916433],
                  [6.878229305858475, 52.98133263853793],
                  [5.0950448864466225, 53.492000941975654]
                ]
              ]
            },
            "properties": {
              "fill": "#ff7800",
              "stroke": "#ff7800",
              "fill-opacity": 0.2,
              "stroke-width": 2,
              "selectionType": "poly",
              "stroke-opacity": 1
            }
          }
        ]
      },
      "validFrom": "2023-12-05T14:46:01Z",
      "validUntil": "2023-12-05T20:46:01Z",
      "level": "severe",
      "probability": 30
    }
  },
  {
    "id": "f1e8981e-937c-11ee-a1bf-0ab3cf8a98c1",
    "lastUpdatedTime": "2023-12-05T14:45:33Z",
    "status": "DRAFT",
    "warningDetail": {
      "phenomenon": "wind",
      "geoJSON": {
        "type": "FeatureCollection",
        "features": [
          {
            "type": "Feature",
            "geometry": {
              "type": "Polygon",
              "coordinates": [
                [
                  [5.5, 52.9],
                  [5.5, 53],
                  [5.4, 53.1],
                  [5.3, 53],
                  [5.3, 52.9],
                  [5.4, 52.8],
                  [5.5, 52.9]
                ]
              ]
            },
            "properties": {
              "fill": "#fae21e",
              "stroke": "#fae21e",
              "fill-opacity": 0.2,
              "stroke-width": 2,
              "selectionType": "poly",
              "warning_level": "1",
              "stroke-opacity": 1
            }
          }
        ]
      },
      "validFrom": "2023-12-05T14:45:28Z",
      "probability": 30
    }
  },
  {
    "id": "30fe2e4c-937d-11ee-b3d1-0ab3cf8a98c1",
    "lastUpdatedTime": "2023-12-05T14:47:19Z",
    "status": "PUBLISHED",
    "warningDetail": {
      "phenomenon": "snowIce",
      "geoJSON": {
        "type": "FeatureCollection",
        "features": [
          {
            "type": "Feature",
            "geometry": {
              "type": "Polygon",
              "coordinates": [
                [
                  [5.0950448864466225, 53.492000941975654],
                  [4.280148780801422, 52.46455621916433],
                  [6.878229305858475, 52.98133263853793],
                  [5.0950448864466225, 53.492000941975654]
                ]
              ]
            },
            "properties": {
              "fill": "#ff7800",
              "stroke": "#ff7800",
              "fill-opacity": 0.2,
              "stroke-width": 2,
              "selectionType": "poly",
              "stroke-opacity": 1
            }
          }
        ]
      },
      "validFrom": "2023-12-05T14:47:03Z",
      "validUntil": "2023-12-18T16:47:03Z",
      "level": "severe",
      "probability": 70
    }
  },
  {
    "id": "20f54a8a-937d-11ee-b619-0ab3cf8a98c1",
    "lastUpdatedTime": "2023-12-05T14:46:52Z",
    "status": "PUBLISHED",
    "warningDetail": {
      "phenomenon": "lowTemp",
      "geoJSON": {
        "type": "FeatureCollection",
        "features": [
          {
            "type": "Feature",
            "geometry": {
              "type": "Polygon",
              "coordinates": [
                [
                  [5.0950448864466225, 53.492000941975654],
                  [4.280148780801422, 52.46455621916433],
                  [6.878229305858475, 52.98133263853793],
                  [5.0950448864466225, 53.492000941975654]
                ]
              ]
            },
            "properties": {
              "fill": "#ff7800",
              "stroke": "#ff7800",
              "fill-opacity": 0.2,
              "stroke-width": 2,
              "selectionType": "poly",
              "stroke-opacity": 1
            }
          }
        ]
      },
      "validFrom": "2023-12-05T14:46:39Z",
      "validUntil": "2023-12-07T20:48:39Z",
      "level": "moderate",
      "probability": 80
    }
  },
  {
    "id": "14f7903a-937d-11ee-b619-0ab3cf8a98c1",
    "lastUpdatedTime": "2023-12-05T14:46:32Z",
    "status": "PUBLISHED",
    "warningDetail": {
      "phenomenon": "wind",
      "geoJSON": {
        "type": "FeatureCollection",
        "features": [
          {
            "type": "Feature",
            "geometry": {
              "type": "Polygon",
              "coordinates": [
                [
                  [5.0950448864466225, 53.492000941975654],
                  [4.280148780801422, 52.46455621916433],
                  [6.878229305858475, 52.98133263853793],
                  [5.0950448864466225, 53.492000941975654]
                ]
              ]
            },
            "properties": {
              "fill": "#ff7800",
              "stroke": "#ff7800",
              "fill-opacity": 0.2,
              "stroke-width": 2,
              "selectionType": "poly",
              "stroke-opacity": 1
            }
          }
        ]
      },
      "validFrom": "2023-12-06T14:46:19Z",
      "validUntil": "2023-12-06T20:46:19Z",
      "level": "severe",
      "probability": 30
    }
  },
  {
    "id": "4b94edb8-937d-11ee-b619-0ab3cf8a98c1",
    "lastUpdatedTime": "2023-12-05T14:48:04Z",
    "status": "EXPIRED",
    "warningDetail": {
      "phenomenon": "snowIce",
      "geoJSON": {
        "type": "FeatureCollection",
        "features": [
          {
            "type": "Feature",
            "geometry": {
              "type": "Polygon",
              "coordinates": [
                [
                  [5.0950448864466225, 53.492000941975654],
                  [4.280148780801422, 52.46455621916433],
                  [6.878229305858475, 52.98133263853793],
                  [5.0950448864466225, 53.492000941975654]
                ]
              ]
            },
            "properties": {
              "fill": "#ff7800",
              "stroke": "#ff7800",
              "fill-opacity": 0.2,
              "stroke-width": 2,
              "selectionType": "poly",
              "stroke-opacity": 1
            }
          }
        ]
      },
      "validFrom": "2023-12-05T14:47:50Z",
      "validUntil": "2023-12-05T20:47:50Z",
      "level": "moderate",
      "probability": 40
    }
  }
]
