{
  "tac": [
    [
      {
        "text": "TAF"
      },
      {
        "text": "EHAM"
      },
      {
        "text": "1406/1512"
      },
      {
        "text": "08020KT",
        "type": "adverse"
      },
      {
        "text": "CAVOK"
      }
    ],
    [
      {
        "text": "PROB30"
      },
      {
        "text": "TEMPO"
      },
      {
        "text": "1505/1512"
      },
      {
        "text": "1000",
        "type": "adverse"
      },
      {
        "text": "+SHRA",
        "type": "adverse"
      },
      {
        "text": "BKN040",
        "type": "adverse"
      },
      {
        "text": "FEW050CB"
      }
    ],
    [
      {
        "text": "BECMG"
      },
      {
        "text": "1506/1509"
      },
      {
        "text": "32015G20KT",
        "type": "adverse"
      },
      {
        "text": "VV001",
        "type": "adverse"
      },
      { "text": "=" }
    ]
  ]
}
