[
  {
    "uuid": "someuniqueidprescibedbyBE2",
    "lastUpdateDate": "2020-09-17T12:00:00Z",
    "creationDate": "2020-09-17T12:00:00Z",
    "canbe": ["CANCELLED"],
    "sigmet": {
      "uuid": "someuniqueidprescibedbyBE2",
      "phenomenon": "VA_CLD",
      "sequence": "A01V",
      "issueDate": "2020-09-17T12:00:00Z",
      "firName": "AMSTERDAM FIR",
      "locationIndicatorATSU": "EHAA",
      "locationIndicatorATSR": "EHAA",
      "locationIndicatorMWO": "EHDB",
      "isObservationOrForecast": "OBS",
      "observationOrForecastTime": "",
      "movementType": "STATIONARY",
      "change": "WKN",
      "type": "NORMAL",
      "status": "PUBLISHED",
      "levelInfoMode": "BETW",
      "vaSigmetVolcanoName": "EYJAFJALLAJOKULL",
      "vaSigmetVolcanoCoordinates": { "latitude": 63.62, "longitude": -19.61 },
      "level": {
        "value": 2000,
        "unit": "FT"
      },
      "lowerLevel": {
        "value": 1000,
        "unit": "FT"
      },
      "firGeometry": "",
      "startGeometry": {
        "type": "FeatureCollection",
        "features": [
          {
            "type": "Feature",
            "properties": {
              "selectionType": "poly"
            },
            "geometry": {
              "type": "Polygon",
              "coordinates": [
                [
                  [4.799062887514267, 54.04327723979929],
                  [6.006227982070749, 53.64012115183787],
                  [4.6168492883359304, 53.32840097044425],
                  [4.799062887514267, 54.04327723979929]
                ]
              ]
            }
          }
        ]
      },
      "startGeometryIntersect": {
        "type": "FeatureCollection",
        "features": [
          {
            "type": "Feature",
            "properties": {
              "selectionType": "poly"
            },
            "geometry": {
              "type": "Polygon",
              "coordinates": [
                [
                  [4.799062887514267, 54.04327723979929],
                  [6.006227982070749, 53.64012115183787],
                  [4.6168492883359304, 53.32840097044425],
                  [4.799062887514267, 54.04327723979929]
                ]
              ]
            }
          }
        ]
      }
    }
  }
]
